<?xml version="1.0" encoding="utf-8"?>
<!-- Generator: Adobe Illustrator 26.5.0, SVG Export Plug-In . SVG Version: 6.00 Build 0)  -->
<svg version="1.1" id="Layer_1" xmlns="http://www.w3.org/2000/svg" xmlns:xlink="http://www.w3.org/1999/xlink" x="0px" y="0px"
	 viewBox="0 0 493.7 100" style="enable-background:new 0 0 493.7 100;" xml:space="preserve">
<style type="text/css">
	.st0{fill:#FFFFFF;}
	.st1{fill:#FFA829;}
	.st2{fill:url(#SVGID_1_);}
	.st3{fill:url(#SVGID_00000023251699620498734120000016085959096786129046_);}
</style>
<g>
	<path class="st0" d="M289.8,65.6l2.5-5.7c3.2,2.5,8.2,4.3,13.1,4.3c6.2,0,8.8-2.2,8.8-5.1c0-8.6-23.6-3-23.6-17.7
		c0-6.4,5.1-11.8,16-11.8c4.8,0,9.7,1.3,13.2,3.5l-2.3,5.7c-3.6-2.1-7.5-3.1-10.9-3.1c-6.1,0-8.6,2.4-8.6,5.4
		c0,8.4,23.5,3,23.5,17.5c0,6.3-5.1,11.8-16,11.8C299.2,70.4,293,68.4,289.8,65.6z"/>
	<path class="st0" d="M462,65.6l2.5-5.7c3.2,2.5,8.2,4.3,13.1,4.3c6.2,0,8.8-2.2,8.8-5.1c0-8.6-23.6-3-23.6-17.7
		c0-6.4,5.1-11.8,16-11.8c4.8,0,9.7,1.3,13.2,3.5l-2.3,5.7c-3.6-2.1-7.5-3.1-10.9-3.1c-6.1,0-8.6,2.4-8.6,5.4
		c0,8.4,23.5,3,23.5,17.5c0,6.3-5.1,11.8-16,11.8C471.4,70.4,465.2,68.4,462,65.6z"/>
	<path class="st0" d="M328.3,52.5V30.2h7.3v22.1c0,8.1,3.7,11.7,10.1,11.7s10-3.5,10-11.7V30.2h7.2v22.3c0,11.6-6.5,17.8-17.3,17.8
		C334.9,70.4,328.3,64.1,328.3,52.5z"/>
	<path class="st0" d="M373.3,30.2h7.3v39.6h-7.3V30.2z"/>
	<path class="st0" d="M399.4,36.4h-13.1v-6.2h33.6v6.2h-13.1v33.4h-7.3V36.4H399.4z"/>
	<path class="st0" d="M455.2,63.6v6.2h-29.7V30.2h28.9v6.2h-21.6v10.3H452v6.1h-19.1v10.9L455.2,63.6L455.2,63.6z"/>
</g>
<path class="st1" d="M94.2,78.7c-10.5,3.9-23,5.6-36.1,4.4C23.9,79.9-2,58.5,0.1,35.2C1.7,18,18.3,4.5,40.7,0
	C24.1,6.2,12.6,17.8,11.2,32.1C9.1,55.4,35,76.8,69.1,79.9C77.9,80.7,86.4,80.2,94.2,78.7z"/>
<linearGradient id="SVGID_1_" gradientUnits="userSpaceOnUse" x1="18.0771" y1="12.753" x2="45.1577" y2="39.8336" gradientTransform="matrix(1 0 0 -1 0 102)">
	<stop  offset="0" style="stop-color:#0055FF"/>
	<stop  offset="1" style="stop-color:#008CFF"/>
</linearGradient>
<path class="st2" d="M66.3,85.8c-2,0-3.9-0.1-5.9-0.2c-1.3,1.1-2.7,2.1-4.2,3.1c-4.5,2.8-9.3,4.6-14.5,5.4c-5.1-0.8-10-2.6-14.5-5.4
	c-8.7-5.4-14.6-13.8-17-23.4c-2.8-2.7-5.1-5.6-7-8.6c0.2,15.2,8,29,20.9,37.1c5.3,3.3,11,5.4,17.2,6.3l0.4,0.1l0.4-0.1
	c6.1-0.9,11.9-3,17.2-6.3c3.6-2.2,6.7-4.9,9.5-7.9C68,85.8,67.1,85.8,66.3,85.8z"/>
<linearGradient id="SVGID_00000030474150789458294460000014322828973155750052_" gradientUnits="userSpaceOnUse" x1="31.5027" y1="39.103" x2="78.3498" y2="85.9502" gradientTransform="matrix(1 0 0 -1 0 102)">
	<stop  offset="0" style="stop-color:#0055FF"/>
	<stop  offset="1" style="stop-color:#008CFF"/>
</linearGradient>
<path style="fill:url(#SVGID_00000030474150789458294460000014322828973155750052_);" d="M41.7,7.9l-17.5,4.5
	c-2,1.9-21.6,31.5,10.2,51.6l2.2-13c-2.2-1.6-3.6-4.2-3.6-7c0-4.8,3.9-8.7,8.7-8.7s8.7,3.9,8.7,8.7c0,2.9-1.4,5.4-3.6,7l3.4,20.5
	C57,74,65,76.1,74.4,77.8c3.7-6.5,5.7-14,5.7-21.9V17.8L41.7,7.9z M38.3,15.5l-0.2,2.2l-1.6-1.4l-2.1,0.5l0.9-2l-1.1-1.9l2.2,0.2
	l1.4-1.6l0.4,2.1l2,0.8L38.3,15.5z M57.9,20.7l-0.2,2.5l-1.8-1.7l-2.4,0.6l1-2.2l-1.3-2.1l2.5,0.3l1.6-1.9l0.5,2.4l2.3,1L57.9,20.7z
	 M72.2,69.3L72,72.6l-2.5-2.3l-3.3,0.8l1.4-3.1l-1.8-2.9l3.4,0.4l2.2-2.5l0.7,3.3l3.1,1.3L72.2,69.3z M72.8,49.1l-0.2,3.1l-2.3-2.1
	l-3,0.7l1.3-2.8L67,45.4l3.1,0.3l2-2.4l0.6,3l2.9,1.2L72.8,49.1z M73.4,29l-0.2,2.8l-2.1-1.9l-2.7,0.6l1.1-2.5l-1.4-2.4l2.7,0.3
	l1.8-2.1l0.6,2.7l2.6,1.1L73.4,29z"/>
<g>
	<path class="st0" d="M103.1,30.2h11.2v30.7h18.9v8.9h-30.1V30.2z"/>
	<path class="st0" d="M169.5,61.1v8.7h-31.8V30.2h31.1v8.7h-20v6.7h17.6V54h-17.6v7.2L169.5,61.1L169.5,61.1z"/>
	<path class="st0" d="M202.2,49.2h9.9v16.4c-4.6,3.3-10.9,5-16.6,5c-12.6,0-21.8-8.6-21.8-20.6s9.2-20.6,22.1-20.6
		c7.4,0,13.4,2.5,17.3,7.2L206,43c-2.7-3-5.8-4.4-9.6-4.4c-6.8,0-11.3,4.5-11.3,11.3c0,6.7,4.5,11.3,11.2,11.3
		c2.1,0,4.1-0.4,6.1-1.3L202.2,49.2L202.2,49.2z"/>
	<path class="st0" d="M251,61.1v8.7h-31.8V30.2h31.1v8.7h-20v6.7h17.6V54h-17.6v7.2L251,61.1L251,61.1z"/>
	<path class="st0" d="M257.2,30.2h11.2v30.7h18.9v8.9h-30.1V30.2z"/>
</g>
</svg>
