<?xml version="1.0" encoding="utf-8"?>
<!-- Generator: Adobe Illustrator 26.2.1, SVG Export Plug-In . SVG Version: 6.00 Build 0)  -->
<svg version="1.1" id="Layer_1" xmlns="http://www.w3.org/2000/svg" xmlns:xlink="http://www.w3.org/1999/xlink" x="0px" y="0px"
	 viewBox="0 0 1920 806" style="enable-background:new 0 0 1920 806;" xml:space="preserve">
<style type="text/css">
	.st0{fill:url(#SVGID_1_);}
	.st1{fill:#FFFFFF;}
</style>
<linearGradient id="SVGID_1_" gradientUnits="userSpaceOnUse" x1="0" y1="403" x2="1920" y2="403">
	<stop  offset="0" style="stop-color:#070611"/>
	<stop  offset="0.4958" style="stop-color:#0F1D40"/>
	<stop  offset="1" style="stop-color:#03010F"/>
</linearGradient>
<rect class="st0" width="1920" height="806"/>
<path class="st1" d="M0,0v48.3c0,0,134.1-44.2,316.6-3.6c0,0,244.5,44.2,325.1,42.8c0,0,202.2,8.8,354.8-17.3
	c0,0,236.9-46.8,408.7-11.2c0,0,235.6,44.2,514.9-33.5V0H0z"/>
</svg>
