<svg xmlns="http://www.w3.org/2000/svg" viewBox="0 0 147.26 109.71">
<defs>
<style>
.cls-1s{fill:#1c4584;}
.cls-2s{fill:#ef3e39;}
.cls-3s{fill:#853594;}
</style>
</defs>
<title>quickfunnel icon svg</title>
<g id="Layer_2s" data-name="Layer 2s">
<g id="Layer_1-2s" data-name="Layer 1s">
<path class="cls-1s" d="M140.39,0H18.86a5.15,5.15,0,1,0,0,10.29H61.14a5.14,5.14,0,0,1,0,10.28h-56a5.15,5.15,0,0,0,0,10.29H40.78l0,0H54.31a5.15,5.15,0,0,1,0,10.29H46a5.14,5.14,0,0,0-.26,10.27H63.58a5.14,5.14,0,0,1,.13,10.28h-3a5,5,0,0,0-3.51,1.5A5.14,5.14,0,0,0,60.84,72h8v37.71L103.08,96V68.57l42.81-57.63A6.85,6.85,0,0,0,140.39,0ZM66.23,36a5.16,5.16,0,0,1,5.14-5.15h10a5.15,5.15,0,0,1,0,10.29h-10A5.14,5.14,0,0,1,66.23,36Z"/>
<path class="cls-2s" d="M34,46.31a5.16,5.16,0,0,1-5.14,5.14h-10a5.14,5.14,0,1,1,0-10.28h10A5.14,5.14,0,0,1,34,46.31Z"/>
<path class="cls-2s" d="M48.84,66.86A5.16,5.16,0,0,1,43.7,72H40.77a5.28,5.28,0,0,1-5.35-4.81,5.08,5.08,0,0,1,1.5-4,5,5,0,0,1,3.5-1.5h3.41A5.12,5.12,0,0,1,48.84,66.86Z"/>
<path class="cls-3s" d="M45.76,61.72h0Z"/>
<path class="cls-3s" d="M63.71,61.72h0Z"/>
<path class="cls-3s" d="M63.71,61.72h0Z"/>
</g>
</g>
</svg>