<svg version="1.1" id="Layer_11" xmlns="http://www.w3.org/2000/svg" xmlns:xlink="http://www.w3.org/1999/xlink" x="0px" y="0px"
	 viewBox="0 0 865.5 207.4" style="enable-background:new 0 0 865.5 207.4; max-height:50px" xml:space="preserve">
<style type="text/css">
	.st00{fill:#FFFFFF;}
	.st11{fill:url(#SVGID_1_);}
	.st22{fill:url(#SVGID_00000003804682614402079440000013301449542194118298_);}
	.st33{fill:url(#SVGID_00000106859270421856661840000011347085370863025833_);}
	.st44{opacity:0.3;}
	.st55{fill:#0F0F0F;}
</style>
<g>
	<path class="st00" d="M482.4,27.5v105.7c0,17.9-10.1,33.4-24.9,41.3v-32.9c1-2.6,1.6-5.4,1.6-8.4s-0.6-5.8-1.6-8.4V27.5H482.4z"/>
	<path class="st00" d="M457.6,92c-6.5-3.4-13.9-5.4-21.8-5.4c-25.8,0-46.6,20.9-46.6,46.6c0,25.8,20.9,46.6,46.6,46.6
		c7.9,0,15.3-1.9,21.8-5.4c14.8-7.8,24.9-23.4,24.9-41.3C482.4,115.3,472.4,99.8,457.6,92z M457.6,141.6c-2,5.3-5.9,9.6-10.9,12.2
		c-3.2,1.7-7,2.7-10.9,2.7c-12.9,0-23.3-10.4-23.3-23.3s10.4-23.3,23.3-23.3c3.9,0,7.6,1,10.9,2.7c5,2.6,8.8,7,10.9,12.2
		c1,2.6,1.6,5.4,1.6,8.4C459.1,136.2,458.6,139,457.6,141.6z"/>
	<path class="st00" d="M498,27.5v105.7c0,17.9,10.1,33.4,24.9,41.3v-32.9c-1-2.6-1.6-5.4-1.6-8.4s0.6-5.8,1.6-8.4V27.5H498z"/>
	<path class="st00" d="M498,133.2c0,17.9,10.1,33.4,24.9,41.3c6.5,3.4,13.9,5.4,21.8,5.4c25.8,0,46.6-20.9,46.6-46.6
		c0-25.8-20.9-46.6-46.6-46.6c-7.9,0-15.3,1.9-21.8,5.4C508.1,99.8,498,115.3,498,133.2z M521.3,133.2c0-3,0.6-5.8,1.6-8.4
		c2-5.3,5.9-9.6,10.9-12.2c3.2-1.7,7-2.7,10.9-2.7c12.9,0,23.3,10.4,23.3,23.3s-10.4,23.3-23.3,23.3c-3.9,0-7.6-1-10.9-2.7
		c-5-2.6-8.8-7-10.9-12.2C521.8,139,521.3,136.2,521.3,133.2z"/>
	<path class="st00" d="M597.5,133.2c0,17.9,10.1,33.4,24.9,41.3c6.5,3.4,13.9,5.4,21.8,5.4c25.8,0,46.6-20.9,46.6-46.6
		c0-25.8-20.9-46.6-46.6-46.6c-7.9,0-15.3,1.9-21.8,5.4C607.5,99.8,597.5,115.3,597.5,133.2z M620.8,133.2c0-3,0.6-5.8,1.6-8.4
		c2-5.3,5.9-9.6,10.9-12.2c3.2-1.7,7-2.7,10.9-2.7c12.9,0,23.3,10.4,23.3,23.3s-10.4,23.3-23.3,23.3c-3.9,0-7.6-1-10.9-2.7
		c-5-2.6-8.8-7-10.9-12.2C621.3,139,620.8,136.2,620.8,133.2z"/>
	<polygon class="st00" points="721.5,179.9 690.4,179.9 756.1,86.5 787.2,86.5 	"/>
	<polygon class="st00" points="756.1,179.9 787.2,179.9 721.5,86.5 690.4,86.5 	"/>
	
		<linearGradient id="SVGID_1_" gradientUnits="userSpaceOnUse" x1="291.6235" y1="980.703" x2="309.5574" y2="1019.9633" gradientTransform="matrix(1 0 0 1 0 -870)">
		<stop  offset="0" style="stop-color:#F40C28"/>
		<stop  offset="0.8911" style="stop-color:#FF2C50"/>
	</linearGradient>
	<polygon class="st11" points="264.4,179.9 278.5,150 308.3,86.5 339.4,86.5 295.5,179.9 292.5,179.9 	"/>
	<polygon class="st00" points="292.5,179.9 278.5,150 248.6,86.5 217.5,86.5 261.5,179.9 264.4,179.9 	"/>
	<rect x="351.9" y="86.6" class="st00" width="24.9" height="93.3"/>
	<rect x="351.9" y="51.8" class="st00" width="24.9" height="24.9"/>
	<g>
		<path class="st00" d="M810.1,175.9c-5.9-2.7-10.5-6.3-14-10.9c-3.4-4.6-5.3-9.6-5.6-15.2h23c0.4,3.5,2.1,6.4,5.1,8.6
			c3,2.3,6.7,3.4,11.2,3.4c4.3,0,7.8-0.9,10.2-2.6c2.4-1.7,3.7-4,3.7-6.7c0-2.9-1.5-5.1-4.5-6.6s-7.8-3.1-14.3-4.8
			c-6.7-1.6-12.3-3.3-16.6-5.1c-4.3-1.7-8-4.4-11.1-8c-3.1-3.6-4.7-8.4-4.7-14.5c0-5,1.4-9.6,4.3-13.7c2.9-4.1,7-7.4,12.4-9.8
			s11.7-3.6,19-3.6c10.8,0,19.4,2.7,25.8,8.1c6.4,5.4,10,12.6,10.6,21.8h-21.9c-0.3-3.6-1.8-6.4-4.5-8.6c-2.7-2.1-6.2-3.2-10.7-3.2
			c-4.1,0-7.3,0.8-9.5,2.3s-3.3,3.6-3.3,6.4c0,3,1.5,5.4,4.6,6.9c3,1.6,7.8,3.2,14.2,4.8c6.5,1.6,11.9,3.3,16.2,5.1
			c4.2,1.7,7.9,4.4,11,8.1c3.1,3.6,4.7,8.5,4.8,14.4c0,5.2-1.4,9.9-4.3,14c-2.9,4.1-7,7.4-12.4,9.7s-11.7,3.5-18.8,3.5
			C822.6,179.9,815.9,178.5,810.1,175.9z"/>
	</g>
</g>
<g>
	<g>
		
			<linearGradient id="SVGID_00000090999748961388969530000010752564172096406444_" gradientUnits="userSpaceOnUse" x1="-1360.6178" y1="-1339.845" x2="-1175.7527" y2="-1283.7964" gradientTransform="matrix(0.6181 -0.7861 -0.7861 -0.6181 -176.8927 -1732.0651)">
			<stop  offset="0.2973" style="stop-color:#F40C28"/>
			<stop  offset="0.7365" style="stop-color:#FF2C50"/>
		</linearGradient>
		<path style="fill:url(#SVGID_00000090999748961388969530000010752564172096406444_);" d="M125.8,6.8c0.4,0.3,0.8,0.7,1.2,1
			c6.2,5.4,9.8,12.7,10.8,20.3c1,8.1-1.2,16.6-6.6,23.6l-75.8,96.4c0,0-18.4,20.5-8.9,35l-32-25.2c-1.1-0.9-2.2-1.8-3.2-2.8
			c-13.5-13.3-15.2-35-3.2-50.3l72.8-92.6C91.8-1.7,111.9-4.1,125.8,6.8z"/>
		
			<linearGradient id="SVGID_00000108307696041867937860000005451407988123938486_" gradientUnits="userSpaceOnUse" x1="-1216.8146" y1="1899.8297" x2="-973.6699" y2="1975.1873" gradientTransform="matrix(-0.6181 0.7861 0.7861 0.6181 -2080.1633 -197.5988)">
			<stop  offset="0.3687" style="stop-color:#F40C28"/>
			<stop  offset="1" style="stop-color:#FF2C50"/>
		</linearGradient>
		<path style="fill:url(#SVGID_00000108307696041867937860000005451407988123938486_);" d="M67.7,199.8c-0.4-0.3-0.8-0.7-1.2-1
			c-6.2-5.4-9.8-12.7-10.8-20.3c-1-8.1,1.2-16.6,6.6-23.6l75.8-96.4c0,0,18.4-20.5,8.9-35l32,25.2c1.1,0.9,2.2,1.8,3.2,2.8
			c13.5,13.3,15.2,35,3.2,50.3l-72.8,92.6C101.7,208.3,81.6,210.7,67.7,199.8z"/>
	</g>
	<g class="st44">
		<path class="st55" d="M68.8,69v78.4c0,8.7,9.8,13.7,16.8,8.6l54.6-39.2c5.9-4.2,5.9-13,0-17.3L85.6,60.4
			C78.6,55.3,68.8,60.4,68.8,69z"/>
	</g>
	<g>
		<path class="st00" d="M66.8,66v78.4c0,8.7,9.8,13.7,16.8,8.6l54.6-39.2c5.9-4.2,5.9-13,0-17.3L83.6,57.4
			C76.6,52.3,66.8,57.4,66.8,66z"/>
	</g>
</g>
</svg>
