<svg width="42" height="42" viewBox="0 0 42 42" fill="none" xmlns="http://www.w3.org/2000/svg">
<circle cx="21" cy="21" r="20.5" stroke="#C8D7E9"/>
<g clip-path="url(#clip0_47_3520)">
<path d="M17.4282 25.9654L13.2972 21.8344C12.8329 21.3702 12.0829 21.3702 11.6186 21.8344C11.1543 22.2987 11.1543 23.0487 11.6186 23.513L16.5948 28.4892C17.0591 28.9535 17.8091 28.9535 18.2734 28.4892L30.8686 15.894C31.3329 15.4297 31.3329 14.6797 30.8686 14.2154C30.4043 13.7511 29.6543 13.7511 29.1901 14.2154L17.4282 25.9654Z" fill="#004CFD"/>
</g>
<defs>
<clipPath id="clip0_47_3520">
<rect width="28.5714" height="28.5714" fill="white" transform="translate(6.71387 6.71484)"/>
</clipPath>
</defs>
</svg>
