<svg width="370" height="470" viewBox="0 0 370 470" fill="none" xmlns="http://www.w3.org/2000/svg">
<g style="mix-blend-mode:multiply">
<mask id="mask0_170_1035" style="mask-type:alpha" maskUnits="userSpaceOnUse" x="0" y="0" width="370" height="470">
<rect width="370" height="470" rx="30" fill="#F9F9FA"/>
</mask>
<g mask="url(#mask0_170_1035)">
<g filter="url(#filter0_f_170_1035)">
<ellipse cx="27.5" cy="210" rx="89.5" ry="89" fill="#FFCFCF" fill-opacity="0.7"/>
</g>
<g filter="url(#filter1_f_170_1035)">
<circle cx="186.5" cy="49.5" r="89.5" fill="#CBFFB3" fill-opacity="0.7"/>
</g>
<g filter="url(#filter2_f_170_1035)">
<ellipse cx="389.5" cy="133" rx="89.5" ry="89" fill="#74ABFF" fill-opacity="0.7"/>
</g>
<g filter="url(#filter3_f_170_1035)">
<ellipse cx="464.5" cy="115" rx="89.5" ry="89" fill="#D2AEFF" fill-opacity="0.7"/>
</g>
</g>
</g>
<defs>
<filter id="filter0_f_170_1035" x="-312" y="-129" width="679" height="678" filterUnits="userSpaceOnUse" color-interpolation-filters="sRGB">
<feFlood flood-opacity="0" result="BackgroundImageFix"/>
<feBlend mode="normal" in="SourceGraphic" in2="BackgroundImageFix" result="shape"/>
<feGaussianBlur stdDeviation="125" result="effect1_foregroundBlur_170_1035"/>
</filter>
<filter id="filter1_f_170_1035" x="-153" y="-290" width="679" height="679" filterUnits="userSpaceOnUse" color-interpolation-filters="sRGB">
<feFlood flood-opacity="0" result="BackgroundImageFix"/>
<feBlend mode="normal" in="SourceGraphic" in2="BackgroundImageFix" result="shape"/>
<feGaussianBlur stdDeviation="125" result="effect1_foregroundBlur_170_1035"/>
</filter>
<filter id="filter2_f_170_1035" x="50" y="-206" width="679" height="678" filterUnits="userSpaceOnUse" color-interpolation-filters="sRGB">
<feFlood flood-opacity="0" result="BackgroundImageFix"/>
<feBlend mode="normal" in="SourceGraphic" in2="BackgroundImageFix" result="shape"/>
<feGaussianBlur stdDeviation="125" result="effect1_foregroundBlur_170_1035"/>
</filter>
<filter id="filter3_f_170_1035" x="175" y="-174" width="579" height="578" filterUnits="userSpaceOnUse" color-interpolation-filters="sRGB">
<feFlood flood-opacity="0" result="BackgroundImageFix"/>
<feBlend mode="normal" in="SourceGraphic" in2="BackgroundImageFix" result="shape"/>
<feGaussianBlur stdDeviation="100" result="effect1_foregroundBlur_170_1035"/>
</filter>
</defs>
</svg>
