<svg version="1.1" id="Layer_1" xmlns="http://www.w3.org/2000/svg" xmlns:xlink="http://www.w3.org/1999/xlink" x="0px" y="0px"
	 viewBox="0 0 1649.63 243.4" style="enable-background:new 0 0 1649.63 243.4; height:40px;" xml:space="preserve">
<style type="text/css">
	.st0{fill:#1F91C9;}
	.st1{fill:#9C2341;}
	.st2{clip-path:url(#SVGID_2_);fill:url(#SVGID_3_);}
	.st3{clip-path:url(#SVGID_5_);fill:url(#SVGID_6_);}
	.st4{clip-path:url(#SVGID_8_);fill:url(#SVGID_9_);}
	.st5{fill-rule:evenodd;clip-rule:evenodd;fill:url(#SVGID_10_);}
</style>
<g>
	<path class="st0" d="M348.71,60.52l-49.91,86.39l-28.68,49.65l-3.62,6.27l-7.26,12.56l-2.27,3.93l-10.26,17.76l-0.06,0.11
		c-4.85,8.31-16.89,8.29-21.71-0.05l-12.55-21.72l-10.89-18.85l22.06-38.18l1.37-2.37l10.88-18.83l16.02-27.73l15.71-27.19
		C283.95,53.85,320.29,44.12,348.71,60.52"/>
	<path class="st1" d="M147.22,196.56l-23.44,40.57c-0.01,0.01-0.01,0.02-0.02,0.03c-4.84,8.32-16.87,8.32-21.7,0
		c-0.01-0.01-0.01-0.02-0.02-0.03l-17.09-29.58l-2.72-4.71l-3.63-6.27l-39.44-68.28L0,60.52c9.36-5.4,19.57-7.96,29.66-7.96
		c20.54,0,40.51,10.65,51.52,29.7l11.5,19.9l20.23,35.02l6.42,11.11L147.22,196.56z"/>
	<g>
		<g>
			<defs>
				<polygon id="SVGID_1_" points="251.83,109.44 235.8,137.18 224.92,156.01 223.56,158.38 256.97,219.32 259.24,215.39 
					266.49,202.83 270.12,196.56 298.8,146.91 				"/>
			</defs>
			<clipPath id="SVGID_2_">
				<use xlink:href="#SVGID_1_"  style="overflow:visible;"/>
			</clipPath>
			
				<linearGradient id="SVGID_3_" gradientUnits="userSpaceOnUse" x1="384.329" y1="-103.9643" x2="385.3426" y2="-103.9643" gradientTransform="matrix(43.2807 -61.2826 61.2826 43.2807 -10001.376 28216.3203)">
				<stop  offset="0" style="stop-color:#12539E"/>
				<stop  offset="0.419" style="stop-color:#1F91C9"/>
				<stop  offset="1" style="stop-color:#1F91C9"/>
			</linearGradient>
			<polygon class="st2" points="171.75,182.75 248.6,74.01 350.61,146.01 273.76,254.75 			"/>
		</g>
	</g>
	<g>
		<g>
			<defs>
				<polygon id="SVGID_4_" points="39.17,128.29 78.61,196.56 82.23,202.83 84.95,207.54 119.33,148.29 112.91,137.18 92.68,102.15 
									"/>
			</defs>
			<clipPath id="SVGID_5_">
				<use xlink:href="#SVGID_4_"  style="overflow:visible;"/>
			</clipPath>
			
				<linearGradient id="SVGID_6_" gradientUnits="userSpaceOnUse" x1="392.6125" y1="-108.1133" x2="393.6259" y2="-108.1133" gradientTransform="matrix(-38.113 -69.3043 69.3043 -38.113 22534.9023 23242.7832)">
				<stop  offset="0" style="stop-color:#6D0C28"/>
				<stop  offset="0.514" style="stop-color:#9C2341"/>
				<stop  offset="1" style="stop-color:#9C2341"/>
			</linearGradient>
			<polygon class="st3" points="57.78,241.37 -5.37,126.63 100.72,68.33 163.86,183.07 			"/>
		</g>
	</g>
	<g>
		<g>
			<defs>
				<path id="SVGID_7_" d="M163.47,49.68l-6.93,12l-5.59,9.68l-7.27,12.58l-3.62,6.27l-27.13,46.97l-30.68,53.11
					c-2.25,3.88-2.25,8.66,0,12.54l19.81,34.3c0.01,0.01,0.01,0.02,0.02,0.03c4.84,8.32,16.86,8.32,21.7,0
					c0.01-0.01,0.01-0.02,0.02-0.03l23.44-40.57l27.14-46.97l27.14,46.97l10.89,18.85l12.55,21.72c4.82,8.34,16.85,8.36,21.71,0.05
					l0.06-0.11l12.53-21.69l7.26-12.56c2.25-3.88,2.25-8.66,0-12.54l-19.8-34.26l-10.89-18.85L208.69,90.2l-3.55-6.15l-7.33-12.68
					l-5.6-9.69l-6.95-11.98l-0.01-0.02c-2.42-4.18-6.65-6.28-10.89-6.28C170.12,43.4,165.89,45.5,163.47,49.68"/>
			</defs>
			<clipPath id="SVGID_8_">
				<use xlink:href="#SVGID_7_"  style="overflow:visible;"/>
			</clipPath>
			
				<linearGradient id="SVGID_9_" gradientUnits="userSpaceOnUse" x1="393.4013" y1="-96.5401" x2="394.4144" y2="-96.5401" gradientTransform="matrix(0 197.4266 -197.4266 0 -18885.2266 -77624.4922)">
				<stop  offset="0" style="stop-color:#FD8B25"/>
				<stop  offset="0.581" style="stop-color:#FD8B25"/>
				<stop  offset="1" style="stop-color:#EF4900"/>
			</linearGradient>
			<rect x="79.98" y="43.4" class="st4" width="188.75" height="202.09"/>
		</g>
	</g>
	<polygon points="483.61,75.25 483.61,55.22 369.69,55.22 369.69,241.53 483.61,241.53 483.61,221.51 394,221.51 394,157.45 
		475.6,157.45 475.6,137.44 394,137.44 394,75.25 	"/>
	<path d="M645.61,170.53c-3.3-6.58-7.75-12.1-13.35-16.55c-5.61-4.45-11.8-7.21-18.57-8.27c9.79-3.2,17.67-8.41,23.64-15.62
		c5.96-7.2,8.95-16.32,8.95-27.35c0-8.9-2.23-16.9-6.68-24.02c-4.46-7.12-11.13-12.77-20.04-16.95c-8.9-4.18-19.68-6.27-32.32-6.27
		h-66.78v186.04h69.45c12.47,0,23.28-2.18,32.46-6.54c9.17-4.36,16.16-10.32,20.97-17.89c4.81-7.56,7.21-16.05,7.21-25.48
		C650.55,184.14,648.9,177.12,645.61,170.53 M572.28,155.85h14.7c6.11,0,11.59,0.78,16.45,2.36c4.62,1.48,8.66,3.68,12.14,6.59
		c7.12,5.96,10.69,14.1,10.69,24.42c0,10.14-3.39,18.06-10.16,23.75c-6.77,5.7-16.21,8.54-28.31,8.54h-43.01v-65.66v-13.14v-67.2
		h40.34c11.75,0,20.75,2.67,26.98,8.01c6.23,5.34,9.34,12.72,9.34,22.15s-3.11,16.81-9.34,22.15c-2.48,2.12-5.37,3.83-8.66,5.1
		c-4.99,1.94-10.92,2.91-17.78,2.91h-13.37v20.02H572.28z"/>
	<path d="M808.98,140.9c-4.72,8.72-12.11,15.75-22.17,21.09S764.06,170,748.75,170H717.5v71.53h-37.4V55.22h68.65
		c14.42,0,26.71,2.49,36.86,7.47c10.15,4.98,17.76,11.84,22.84,20.55c5.07,8.72,7.61,18.6,7.61,29.63
		C816.06,122.85,813.7,132.19,808.98,140.9 M770.12,132.76c4.98-4.71,7.48-11.34,7.48-19.88c0-18.15-10.15-27.23-30.45-27.23H717.5
		v54.18h29.65C757.47,139.84,765.13,137.48,770.12,132.76"/>
	<path d="M938.66,241.53l-41.13-72.6H879.9v72.6h-37.4V55.22h69.98c14.42,0,26.71,2.54,36.86,7.61
		c10.15,5.07,17.76,11.92,22.84,20.55c5.07,8.63,7.61,18.28,7.61,28.96c0,12.28-3.56,23.35-10.69,33.23
		c-7.12,9.88-17.72,16.68-31.79,20.42l44.61,75.54H938.66z M879.9,140.9h31.25c10.15,0,17.72-2.44,22.7-7.34
		c4.98-4.89,7.48-11.7,7.48-20.42c0-8.54-2.5-15.17-7.48-19.88c-4.99-4.71-12.55-7.07-22.7-7.07H879.9V140.9z"/>
	<rect x="1013.72" y="55.22" width="37.4" height="186.31"/>
	<polygon points="1291.24,55.22 1291.24,241.53 1253.85,241.53 1253.85,120.35 1203.9,241.53 1175.58,241.53 1125.37,120.35 
		1125.37,241.53 1087.97,241.53 1087.97,55.22 1130.44,55.22 1189.74,193.75 1249.04,55.22 	"/>
	<path d="M1366.57,231.12c-14.6-8.18-26.18-19.53-34.73-34.03c-8.55-14.5-12.82-30.92-12.82-49.25c0-18.15,4.27-34.47,12.82-48.98
		c8.55-14.5,20.12-25.84,34.73-34.03c14.6-8.18,30.63-12.28,48.08-12.28c17.63,0,33.7,4.1,48.21,12.28
		c14.51,8.19,26,19.53,34.46,34.03c8.46,14.51,12.69,30.83,12.69,48.98c0,18.33-4.23,34.75-12.69,49.25s-19.99,25.85-34.59,34.03
		c-14.6,8.19-30.63,12.28-48.08,12.28C1397.19,243.4,1381.16,239.31,1366.57,231.12 M1444.29,202.43
		c8.55-5.07,15.23-12.32,20.03-21.75c4.81-9.43,7.21-20.37,7.21-32.83c0-12.45-2.4-23.35-7.21-32.7
		c-4.81-9.34-11.49-16.5-20.03-21.49c-8.55-4.98-18.43-7.47-29.65-7.47s-21.15,2.49-29.78,7.47c-8.64,4.98-15.36,12.14-20.17,21.49
		c-4.81,9.34-7.21,20.24-7.21,32.7c0,12.46,2.4,23.4,7.21,32.83c4.81,9.43,11.53,16.68,20.17,21.75s18.56,7.61,29.78,7.61
		C1425.86,210.03,1435.75,207.5,1444.29,202.43"/>
	<linearGradient id="SVGID_10_" gradientUnits="userSpaceOnUse" x1="1519.7534" y1="65.0567" x2="1649.6287" y2="65.0567">
		<stop  offset="0" style="stop-color:#FD8B25"/>
		<stop  offset="0.581" style="stop-color:#FD8B25"/>
		<stop  offset="1" style="stop-color:#EF4900"/>
	</linearGradient>
	<path class="st5" d="M1519.75,73.76V56.19c0-4.48,3.64-8.12,8.27-8.12h39.71V8.29c0-4.64,3.64-8.29,8.11-8.29h17.54
		c4.63,0,8.27,3.65,8.27,8.29v39.78h39.71c4.47,0,8.27,3.65,8.27,8.12v17.57c0,4.64-3.81,8.29-8.27,8.29h-39.71v39.78
		c0,4.48-3.64,8.29-8.27,8.29h-17.54c-4.47,0-8.11-3.81-8.11-8.29V82.05h-39.71C1523.39,82.05,1519.75,78.4,1519.75,73.76
		L1519.75,73.76z"/>
</g>
</svg>
