<svg width="387" height="252" viewBox="0 0 387 252" fill="none" xmlns="http://www.w3.org/2000/svg">
<path d="M0.0500488 213.15V169.6H14.05C16.8232 169.528 19.5773 170.078 22.1101 171.21C24.2763 172.198 26.1101 173.792 27.39 175.8C28.6677 177.908 29.3197 180.336 29.2701 182.8C29.3098 185.47 28.5958 188.097 27.21 190.38C25.9094 192.541 23.9553 194.233 21.63 195.21L29.8601 213.11H20.16L13.16 196.64H8.94005V213.11L0.0500488 213.15ZM8.94005 188.93H14.07C15.7477 189.035 17.4027 188.499 18.7001 187.43C19.2586 186.895 19.6945 186.245 19.9777 185.525C20.2608 184.805 20.3844 184.032 20.34 183.26C20.3866 182.459 20.2647 181.657 19.9822 180.906C19.6997 180.155 19.263 179.472 18.7001 178.9C17.4163 177.802 15.756 177.246 14.07 177.35H8.94005V188.93Z" fill="black"/>
<path d="M36.74 213.15V169.6H63.59V177.23H45.51V187H61.51V194.63H45.51V205.49H63.59V213.13L36.74 213.15Z" fill="black"/>
<path d="M85.6599 213.74C82.9126 213.808 80.1831 213.279 77.6599 212.19C75.528 211.275 73.7051 209.765 72.4099 207.84C71.143 205.865 70.4985 203.555 70.5599 201.21H79.5599C79.5338 201.887 79.6753 202.559 79.9719 203.168C80.2685 203.777 80.711 204.303 81.2599 204.7C82.6036 205.622 84.2122 206.079 85.8399 206C87.3993 206.091 88.9435 205.65 90.2199 204.75C90.7414 204.339 91.1576 203.81 91.4341 203.207C91.7106 202.604 91.8394 201.943 91.8099 201.28C91.8331 200.075 91.4051 198.905 90.6099 198C89.7277 197.036 88.555 196.387 87.2699 196.15L82.8599 195.15C79.5403 194.495 76.5187 192.791 74.2399 190.29C72.1727 187.879 71.075 184.785 71.1599 181.61C71.1055 179.271 71.7158 176.965 72.9199 174.96C74.1288 173.045 75.8651 171.521 77.9199 170.57C80.3095 169.48 82.9142 168.944 85.5399 169C89.9999 169 93.5299 170.103 96.1299 172.31C97.418 173.401 98.4399 174.771 99.1176 176.317C99.7952 177.863 100.111 179.544 100.04 181.23H91.0399C91.0672 180.62 90.9543 180.011 90.7098 179.451C90.4654 178.891 90.096 178.395 89.6299 178C88.4076 177.125 86.9198 176.701 85.4199 176.8C84.0119 176.705 82.6167 177.12 81.4899 177.97C81.023 178.38 80.6559 178.892 80.4168 179.465C80.1776 180.039 80.0727 180.66 80.1099 181.28C80.0784 182.461 80.4724 183.615 81.2199 184.53C82.0285 185.472 83.1314 186.113 84.3499 186.35L88.9999 187.37C92.3575 187.97 95.4326 189.636 97.7699 192.12C99.8216 194.559 100.891 197.675 100.77 200.86C100.813 203.242 100.16 205.584 98.8899 207.6C97.6017 209.575 95.7818 211.145 93.6399 212.13C91.135 213.26 88.4072 213.811 85.6599 213.74Z" fill="black"/>
<path d="M117 213.15V178H106V169.6H137V178H126V213.2L117 213.15Z" fill="black"/>
<path d="M143.23 213.15V169.6H157.23C160 169.528 162.751 170.078 165.28 171.21C167.45 172.193 169.285 173.788 170.56 175.8C171.844 177.905 172.496 180.335 172.44 182.8C172.485 185.471 171.77 188.099 170.38 190.38C169.083 192.54 167.132 194.232 164.81 195.21L173.04 213.11H163.32L156.32 196.64H152.14V213.11L143.23 213.15ZM152.12 188.93H157.25C158.925 189.036 160.577 188.5 161.87 187.43C162.43 186.896 162.867 186.246 163.15 185.526C163.434 184.806 163.556 184.033 163.51 183.26C163.559 182.459 163.438 181.656 163.156 180.905C162.873 180.153 162.435 179.47 161.87 178.9C160.591 177.801 158.933 177.245 157.25 177.35H152.12V188.93Z" fill="black"/>
<path d="M193 213.74C190.382 213.806 187.786 213.243 185.43 212.1C183.353 211.088 181.616 209.493 180.43 207.51C179.222 205.419 178.613 203.035 178.67 200.62V182.12C178.613 179.705 179.222 177.321 180.43 175.23C181.62 173.251 183.356 171.657 185.43 170.64C187.814 169.559 190.402 169 193.02 169C195.638 169 198.226 169.559 200.61 170.64C202.665 171.665 204.383 173.258 205.56 175.23C206.763 177.323 207.372 179.706 207.32 182.12V200.62C207.372 203.034 206.763 205.417 205.56 207.51C204.386 209.484 202.667 211.078 200.61 212.1C198.242 213.251 195.632 213.813 193 213.74ZM193 205.99C193.727 206.041 194.457 205.944 195.144 205.703C195.832 205.462 196.464 205.084 197 204.59C197.476 204.044 197.839 203.41 198.069 202.724C198.299 202.037 198.391 201.312 198.34 200.59V182.09C198.444 180.637 197.974 179.2 197.03 178.09C195.867 177.196 194.442 176.711 192.975 176.711C191.508 176.711 190.083 177.196 188.92 178.09C187.972 179.198 187.501 180.636 187.61 182.09V200.59C187.559 201.312 187.651 202.037 187.881 202.724C188.111 203.41 188.474 204.044 188.95 204.59C189.49 205.093 190.129 205.478 190.827 205.721C191.524 205.964 192.264 206.059 193 206V205.99Z" fill="black"/>
<path d="M228.84 213.74C226.093 213.808 223.363 213.279 220.84 212.19C218.712 211.269 216.89 209.76 215.59 207.84C214.328 205.863 213.683 203.555 213.74 201.21H222.69C222.666 201.887 222.808 202.559 223.104 203.167C223.401 203.776 223.842 204.302 224.39 204.7C225.744 205.625 227.363 206.081 229 206C230.559 206.091 232.104 205.65 233.38 204.75C233.9 204.339 234.315 203.81 234.59 203.206C234.865 202.603 234.992 201.942 234.96 201.28C234.987 200.076 234.562 198.906 233.77 198C232.886 197.039 231.714 196.39 230.43 196.15L226.01 195.15C222.692 194.49 219.672 192.787 217.39 190.29C215.325 187.878 214.231 184.784 214.32 181.61C214.266 179.271 214.876 176.965 216.08 174.96C217.285 173.042 219.022 171.517 221.08 170.57C223.478 169.485 226.089 168.956 228.72 169.02C233.167 169.02 236.697 170.123 239.31 172.33C240.596 173.422 241.617 174.793 242.295 176.339C242.972 177.884 243.288 179.564 243.22 181.25H234.27C234.293 180.631 234.172 180.016 233.917 179.452C233.662 178.888 233.28 178.391 232.8 178C231.582 177.124 230.097 176.699 228.6 176.8C227.189 176.707 225.791 177.122 224.66 177.97C224.197 178.383 223.833 178.895 223.595 179.468C223.358 180.041 223.254 180.661 223.29 181.28C223.262 182.459 223.651 183.61 224.39 184.53C225.203 185.472 226.309 186.113 227.53 186.35L232.18 187.42C235.538 188.02 238.613 189.686 240.95 192.17C243.002 194.609 244.071 197.725 243.95 200.91C243.993 203.292 243.34 205.634 242.07 207.65C240.787 209.629 238.965 211.2 236.82 212.18C234.312 213.295 231.584 213.828 228.84 213.74Z" fill="black"/>
<path d="M264.63 213.74C260.223 213.74 256.733 212.547 254.16 210.16C251.587 207.773 250.303 204.513 250.31 200.38V169.6H259.26V200.32C259.158 201.854 259.664 203.367 260.67 204.53C261.77 205.473 263.171 205.991 264.62 205.991C266.069 205.991 267.47 205.473 268.57 204.53C269.074 203.957 269.459 203.29 269.705 202.568C269.95 201.845 270.05 201.081 270 200.32V169.6H279V200.38C279 204.48 277.717 207.73 275.15 210.13C272.583 212.53 269.077 213.733 264.63 213.74Z" fill="black"/>
<path d="M287.3 213.15V205.39H296V177.39H287.3V169.6H313.55V177.35H304.9V205.35H313.55V213.11L287.3 213.15Z" fill="black"/>
<path d="M331.75 213.15V178H320.75V169.6H351.75V178H340.75V213.2L331.75 213.15Z" fill="black"/>
<path d="M358.89 213.15V169.6H385.74V177.23H367.66V187H383.66V194.63H367.66V205.49H385.74V213.13L358.89 213.15Z" fill="black"/>
<path d="M184.19 99.44C189.09 104.58 193.93 99.44 193.93 99.44C190.803 100.685 187.317 100.685 184.19 99.44Z" fill="black"/>
<path d="M213.19 117.16L211.05 110.46C209.627 112.173 207.971 113.678 206.13 114.93C203.27 116.81 203.82 122.2 204.83 124.79C207.814 122.472 210.609 119.92 213.19 117.16Z" fill="black"/>
<path d="M182.27 129.81C183.64 125.64 180.12 119.91 176.99 118.24C174.74 116.937 172.649 115.376 170.76 113.59L168.32 120C173.81 126.1 182.27 129.81 182.27 129.81Z" fill="black"/>
<path d="M196.19 61.2C195.363 61.3429 194.6 61.7334 194 62.32C193.868 62.514 193.757 62.7219 193.67 62.94C193.59 63.12 193.52 63.3 193.46 63.47C193.34 63.83 193.24 64.18 193.15 64.47C192.986 65.1559 192.859 65.8503 192.77 66.55C192.591 67.9097 192.491 69.2787 192.47 70.65C192.47 72.01 192.47 73.36 192.56 74.71C192.65 76.06 192.75 77.4 192.88 78.71C192.93 77.36 192.99 76.02 193.09 74.71C193.09 74.2 193.19 73.71 193.24 73.2L193.41 73.09C194.41 72.35 193.53 68.97 194.72 68.39C195.01 68.25 196.43 69.5 197.59 69.95C197.951 70.1233 198.33 70.2574 198.72 70.35C199.152 70.4603 199.595 70.5207 200.04 70.53C200.492 70.5551 200.945 70.5044 201.38 70.38C200.563 70.098 199.732 69.8577 198.89 69.66L198.42 69.55C198.512 69.4791 198.577 69.3791 198.604 69.2664C198.631 69.1537 198.619 69.035 198.57 68.93C198.343 68.4575 198.027 68.0331 197.64 67.68C197.33 67.44 197.09 67.29 196.64 66.96C196.601 66.9181 196.558 66.8812 196.51 66.85L196.22 66.7C195.87 66.41 195.51 66.12 195.15 65.85C196.063 65.5529 197.005 65.3518 197.96 65.25H198.11C198.11 65.25 198.11 65.32 198.11 65.35C198.11 66.67 199.61 67.73 201.46 67.73C202.071 67.7684 202.681 67.6465 203.23 67.3764C203.779 67.1062 204.248 66.6973 204.59 66.19L205.11 65.99C205.9 66.2 206.71 66.45 207.49 66.73H207.43C207.05 67.06 206.66 67.38 206.25 67.73C205.439 68.3636 204.552 68.8943 203.61 69.31C204.697 69.3174 205.774 69.096 206.77 68.66C207.27 68.45 207.77 68.21 208.24 67.96C208.723 67.6943 209.191 67.4005 209.64 67.08L210.64 66.36L209.51 65.68C208.326 64.9699 207.06 64.4058 205.74 64C205.08 63.78 196.4 63.61 195.74 63.47C195.99 63.11 201.34 62.41 203.63 62.04C204.369 61.9301 205.121 61.9301 205.86 62.04C207.257 62.2127 208.643 62.4664 210.01 62.8C210.218 62.8452 210.434 62.8229 210.628 62.7366C210.823 62.6503 210.984 62.5044 211.09 62.32L212.09 60.45C212.133 60.3543 212.154 60.2504 212.153 60.1456C212.152 60.0407 212.128 59.9374 212.084 59.8425C212.039 59.7476 211.975 59.6634 211.895 59.5957C211.815 59.528 211.721 59.4783 211.62 59.45C203.3 57.45 199.92 59.58 196.62 61.18C196.45 61.14 196.32 61.16 196.19 61.2Z" fill="black"/>
<path d="M179.18 70.4101C180.063 70.2208 180.879 69.7957 181.54 69.1801C180.64 69.3101 179.84 69.5301 179.01 69.7201C178.18 69.9101 177.38 70.1301 176.52 70.4401C176.955 70.5644 177.408 70.6151 177.86 70.59C178.305 70.5807 178.748 70.5203 179.18 70.4101Z" fill="black"/>
<path d="M206.34 94.17C206.13 92.09 203.78 87.44 197.08 85.88C195.999 85.6239 194.89 85.5063 193.78 85.53L194.56 85.23L195.27 84.95H195.36L195.51 84.88L195.78 84.73C195.967 84.5955 196.129 84.4298 196.26 84.24C196.457 83.8874 196.524 83.477 196.45 83.08C196.431 82.9197 196.394 82.7621 196.34 82.61C196.295 82.4686 196.239 82.3314 196.17 82.2C196.031 81.9329 195.874 81.6756 195.7 81.43C195.542 81.135 195.332 80.8708 195.08 80.65C194.793 80.3243 194.482 80.0202 194.15 79.74C194.586 80.6335 194.921 81.5726 195.15 82.54C195.25 82.98 195.15 83.43 195.08 83.44L194.79 83.5L194.05 83.65C192.939 83.8274 191.868 84.2034 190.89 84.76C190.438 85.0848 190.023 85.4569 189.65 85.87C189.537 85.9782 189.409 86.0692 189.27 86.14H189.15H188.91H188.79C188.651 86.0692 188.523 85.9782 188.41 85.87C188.037 85.4569 187.622 85.0848 187.17 84.76C186.193 84.1873 185.118 83.8008 184 83.62L183.26 83.47C183.166 83.4375 183.069 83.4173 182.97 83.41C182.87 83.41 182.8 82.95 182.9 82.51L182.96 82.28C183.409 81.2794 184.02 80.3603 184.77 79.56C184.998 79.3054 185.144 78.9885 185.19 78.65C185.185 78.6965 185.185 78.7435 185.19 78.79C185.19 78.69 185.19 78.6 185.19 78.51C185.35 77.5786 185.431 76.6351 185.43 75.69L185.49 74.76C185.56 73.41 185.6 72.06 185.58 70.7C185.559 69.3287 185.459 67.9597 185.28 66.6C185.193 65.8993 185.062 65.2047 184.89 64.52C184.81 64.18 184.71 63.8467 184.59 63.52L184.53 63.39C184.475 63.2155 184.409 63.0451 184.33 62.88C184.251 62.7025 184.157 62.5319 184.05 62.37C182.832 61.4573 181.483 60.7326 180.05 60.22C177.54 58.87 173.33 57.85 166.63 59.4C166.506 59.4299 166.391 59.4874 166.293 59.5682C166.195 59.649 166.117 59.751 166.064 59.8665C166.011 59.982 165.985 60.1081 165.988 60.2351C165.99 60.3622 166.022 60.4869 166.08 60.6L166.8 61.95C166.956 62.2509 167.208 62.4911 167.516 62.6324C167.824 62.7738 168.17 62.8081 168.5 62.73C170.617 62.2447 172.771 61.9436 174.94 61.83C175.73 61.83 181.32 62.92 181.74 63.32C180.58 63.46 173.44 63.7 172.34 64.06C171.041 64.467 169.796 65.0277 168.63 65.73L167.5 66.41L168.5 67.13C168.949 67.4504 169.416 67.7443 169.9 68.01C170.38 68.26 170.9 68.5 171.37 68.71C172.366 69.1471 173.443 69.3686 174.53 69.36C173.587 68.9466 172.7 68.4157 171.89 67.78C171.48 67.48 171.09 67.16 170.71 66.78H170.65C171.43 66.5 172.24 66.25 173.03 66.04L173.55 66.24C173.892 66.7472 174.361 67.1562 174.91 67.4264C175.459 67.6965 176.069 67.8184 176.68 67.78C178.53 67.78 180.03 66.72 180.03 65.4C180.03 65.4 180.03 65.33 180.03 65.3H180.17C181.128 65.4007 182.074 65.6018 182.99 65.9C182.61 66.19 182.24 66.48 181.87 66.79L181.71 66.92L181.65 66.97C181.45 67.2 181.44 67.45 181.8 67.77C182.16 68.09 183.03 68.12 183.53 68.6L183.79 68.86C183.74 69.8594 183.74 70.8606 183.79 71.86C183.95 74.18 181.79 79.24 181.63 80.68C181.615 80.8964 181.615 81.1136 181.63 81.33C181.63 81.51 181.73 81.83 181.73 81.92C181.766 82.0517 181.816 82.1792 181.88 82.3C181.831 82.4041 181.787 82.511 181.75 82.62C181.691 82.7706 181.654 82.9289 181.64 83.09C181.568 83.4005 181.594 83.7256 181.714 84.0208C181.834 84.3161 182.042 84.5672 182.31 84.74L182.58 84.89L182.72 84.96H182.81L183.53 85.24L184.22 85.5C183.14 85.4812 182.061 85.5988 181.01 85.85C174.62 87.33 171.85 94.12 171.78 94.25C173.35 91.59 176.33 93.94 178.19 93.1C181.06 96.94 186.26 98.1 189.19 98.1C190.979 98.0997 192.739 97.6523 194.311 96.7982C195.883 95.9442 197.216 94.7107 198.19 93.21L199.1 92.88C201.31 93.63 204.48 91.17 206.29 94.28M189 88.3H189.07C189.076 88.3365 189.076 88.3736 189.07 88.41L189 88.3ZM182.71 92.3C184.28 92.36 186.54 92.72 187.96 91.75C188.122 91.6427 188.27 91.515 188.4 91.37C188.69 91.0632 188.906 90.6936 189.03 90.29C189.146 90.7038 189.359 91.0842 189.65 91.4C189.785 91.5429 189.936 91.6703 190.1 91.78C191.52 92.78 193.78 92.39 195.35 92.33C196.176 92.298 197.004 92.3483 197.82 92.48C197.795 92.7114 197.744 92.9394 197.67 93.16C189.9 98.48 182.07 94.97 179.01 93.16C178.92 92.78 179.28 92.6 179.53 92.59C180.581 92.343 181.663 92.252 182.74 92.32L182.71 92.3Z" fill="black"/>
<path d="M244.67 125.34L216.55 116.66C215.76 114.37 212.65 105.4 212.1 104.21C211.55 103.02 209.48 102 207.77 101.29C210.24 98.89 211.98 96.75 212.27 95.62C212.56 94.49 213.42 90.06 214.48 84.57C214.589 84.5528 214.696 84.5261 214.8 84.49C216.8 83.87 218.58 80.38 219.02 79.49C220.72 77.16 228.08 65.24 224.02 62C223.673 61.7195 223.267 61.5201 222.833 61.4163C222.399 61.3125 221.947 61.307 221.51 61.4C220.369 61.7334 219.353 62.3982 218.59 63.31C218.85 61.9 219.03 60.98 219.08 60.73L219.57 58.46C221.557 58.9306 223.607 59.0725 225.64 58.88C228.142 58.6789 230.535 57.7702 232.54 56.26C234.532 54.6477 235.98 52.4625 236.69 50C237.063 48.8108 237.321 47.5885 237.46 46.35C237.46 45.73 237.54 45.12 237.58 44.51C237.62 43.9 237.58 43.51 237.58 43.09C238.343 42.4012 239.015 41.6183 239.58 40.76C240.147 39.9158 240.623 39.0141 241 38.07C241.355 37.1435 241.623 36.1861 241.8 35.21C242.452 31.3298 242.041 27.3453 240.61 23.68C239.898 21.8691 238.971 20.1501 237.85 18.56L236.95 17.42L236.5 16.85L236.01 16.32L235.01 15.26C234.66 14.93 234.29 14.61 233.93 14.26C230.996 11.7275 227.504 9.92505 223.74 9.00002C223.278 8.86133 222.807 8.7577 222.33 8.69002L220.92 8.45002C220.44 8.40002 219.92 8.35002 219.48 8.32002C219.04 8.29002 218.48 8.32002 218.04 8.32002C216.43 8.36287 214.831 8.58422 213.27 8.98002C209.437 5.78498 205.023 3.36055 200.27 1.84002C198.803 1.3663 197.311 0.975683 195.8 0.67002C194.278 0.396831 192.742 0.203235 191.2 0.0900196C189.655 -0.00502282 188.105 -0.00502282 186.56 0.0900196C185.031 0.186871 183.509 0.367139 182 0.63002C180.476 0.925069 178.971 1.30567 177.49 1.77002C176.026 2.27793 174.593 2.87231 173.2 3.55002C172.496 3.87357 171.812 4.23751 171.15 4.64002C170.49 5.05002 169.83 5.43002 169.15 5.86002C167.844 6.72535 166.637 7.73137 165.55 8.86002C164.438 9.9847 163.51 11.2771 162.8 12.69C162.434 13.4488 162.146 14.2429 161.94 15.06C159.418 14.9498 156.895 15.2332 154.46 15.9C150.981 16.8707 147.729 18.5188 144.889 20.7497C142.049 22.9805 139.677 25.7503 137.91 28.9C136.135 32.0947 135.09 35.6431 134.85 39.29C134.81 39.7458 134.81 40.2042 134.85 40.66L134.91 42.04C134.931 42.4971 134.988 42.9518 135.08 43.4C135.15 43.86 135.21 44.31 135.3 44.76C135.711 46.5501 136.364 48.2759 137.24 49.89C138.104 51.487 139.147 52.98 140.35 54.34C141.57 55.6661 142.909 56.8778 144.35 57.96C147.102 60.038 150.132 61.7209 153.35 62.96C151.28 67.16 157.57 77.3 159.12 79.44C159.57 80.35 161.38 83.84 163.35 84.44C163.454 84.4761 163.561 84.5028 163.67 84.52C164.76 90.01 165.67 94.52 165.93 95.57C166.19 96.62 167.93 98.85 170.43 101.25C168.72 101.96 166.63 103.03 166.12 104.16C165.61 105.29 162.46 114.32 161.67 116.61L133.52 125.3L131.44 125.94C131.544 126.651 131.687 127.355 131.87 128.05C135.87 143.18 160.04 154.83 189.14 154.83C218.24 154.83 242.39 143.17 246.41 128.05C246.597 127.353 246.741 126.645 246.84 125.93L244.67 125.34ZM209.36 104.46C209.187 106.183 208.524 107.821 207.45 109.18C209.37 105.4 207.2 103.73 205.96 102.99L206.04 102.91C207.186 103.338 208.296 103.856 209.36 104.46ZM205.16 111.26C204.61 111.62 203.98 112.03 203.28 112.47C197.28 116.32 191.41 120.33 189.06 124.08C186.71 120.33 180.83 116.32 174.83 112.47L173 111.26L172.66 111.01L173.47 107.01C175.99 109.9 183.38 114.73 189.02 114.73C195.92 114.73 205.57 105.96 205.57 105.96L205.99 105.6L206.93 109.86C206.394 110.391 205.8 110.86 205.16 111.26ZM170.04 108.26C169.325 107.102 168.887 105.795 168.76 104.44C169.799 103.872 170.882 103.39 172 103C171.52 103.216 171.088 103.525 170.727 103.908C170.367 104.292 170.086 104.743 169.9 105.235C169.714 105.727 169.627 106.251 169.645 106.777C169.662 107.303 169.782 107.821 170 108.3L170.04 108.26ZM189.04 49.2C184.27 49.2 170.21 49.2 160.48 58.43L156.32 43.67C157.996 43.285 159.605 42.6477 161.09 41.78C162.945 40.6961 164.523 39.1969 165.7 37.4L166 37C166.963 37.5024 167.967 37.9239 169 38.26C171.369 39.0606 173.888 39.317 176.37 39.01C179.506 38.6147 182.396 37.1108 184.52 34.77C186.71 34.55 192.64 34.04 196.01 34.6V34.54C196.887 35.2604 197.839 35.884 198.85 36.4C199.27 36.62 199.69 36.83 200.12 37.03L201.43 37.52C201.87 37.68 202.31 37.85 202.75 37.99L204.08 38.37L205.43 38.7L206.81 38.94C207.729 39.1069 208.657 39.2138 209.59 39.26C211.487 39.3636 213.387 39.1438 215.21 38.61L215.51 38.51C216.101 40.1138 217.084 41.544 218.37 42.67C219.003 43.2377 219.701 43.7279 220.45 44.13L217.35 58.33C207.66 49.22 193.78 49.24 189.06 49.24L189.04 49.2ZM221.9 63.44C222.029 63.4071 222.163 63.4062 222.292 63.4376C222.421 63.469 222.541 63.5317 222.64 63.62C224.31 64.94 220.88 73.32 217.22 78.23L217.11 78.41C216.549 79.5956 215.844 80.7074 215.01 81.72C215.25 80.44 215.51 79.13 215.76 77.82C216.295 77.3637 216.76 76.8313 217.14 76.24C217.532 75.6443 217.826 74.9892 218.01 74.3C218.208 73.6096 218.322 72.8978 218.35 72.18C218.364 71.5809 218.324 70.9818 218.23 70.39C218.599 69.6745 219.049 69.0035 219.57 68.39C219.829 68.0866 220.133 67.8237 220.47 67.61C220.633 67.4933 220.82 67.4154 221.018 67.3825C221.215 67.3496 221.418 67.3624 221.61 67.42C221.42 67.3166 221.208 67.2575 220.992 67.2471C220.775 67.2367 220.559 67.2753 220.36 67.36C219.952 67.5159 219.569 67.7279 219.22 67.99C219.06 68.11 218.92 68.24 218.77 68.37C218.796 68.1675 218.796 67.9625 218.77 67.76C218.72 67.34 218.69 66.91 218.67 66.49C219.65 65.17 220.91 63.7 221.92 63.48L221.9 63.44ZM234.56 49.3C234.273 50.3508 233.849 51.3593 233.3 52.3C232.777 53.2388 232.101 54.0837 231.3 54.8C229.619 56.2619 227.591 57.2674 225.41 57.72C224.286 57.9779 223.142 58.1352 221.99 58.19C221.19 58.19 220.38 58.19 219.57 58.19L222.47 45C222.83 45.12 223.18 45.25 223.54 45.34C224.477 45.5922 225.434 45.7662 226.4 45.86C226.89 45.91 227.4 45.86 227.85 45.93C228.333 45.96 228.817 45.96 229.3 45.93C230.272 45.8958 231.241 45.799 232.2 45.64C233.192 45.4289 234.153 45.0928 235.06 44.64L235.35 44.49C235.279 46.1308 235.021 47.7581 234.58 49.34L234.56 49.3ZM141.64 53.13C140.584 51.8599 139.675 50.4744 138.93 49C138.179 47.5277 137.621 45.9648 137.27 44.35C137.2 43.95 137.15 43.54 137.09 43.13C137.012 42.7245 136.968 42.313 136.96 41.9C136.9 41.0778 136.9 40.2523 136.96 39.43C137.246 36.0972 138.201 32.8563 139.768 29.901C141.335 26.9456 143.482 24.3367 146.08 22.23C150.477 18.5073 155.968 16.32 161.72 16C161.66 16.4 161.61 16.81 161.59 17.21C161.493 20.3191 162.507 23.3611 164.45 25.79C162.904 23.2444 162.237 20.2617 162.55 17.3C163.02 14.464 164.467 11.8817 166.64 10C167.712 9.0272 168.87 8.15362 170.1 7.39002C170.73 7.02002 171.38 6.68002 172.02 6.32002C172.663 5.94124 173.331 5.60712 174.02 5.32002C178.034 3.5404 182.329 2.47768 186.71 2.18002C189.636 2.05609 192.566 2.22022 195.46 2.67002C196.89 3.00002 198.35 3.22002 199.75 3.67002C204.106 4.91018 208.239 6.82687 212 9.35002C208.565 10.4791 205.395 12.2922 202.68 14.68C205.695 12.5451 209.088 11.0042 212.68 10.14C216.216 9.32537 219.905 9.4634 223.37 10.54C226.815 11.5606 229.985 13.3487 232.64 15.77L233.64 16.68L234.53 17.68L234.98 18.17L235.39 18.7L236.19 19.76C237.663 21.971 238.743 24.4205 239.38 27C239.51 27.43 239.54 27.87 239.63 28.3C239.723 28.7318 239.787 29.1695 239.82 29.61C239.91 30.4869 239.94 31.369 239.91 32.25C239.91 32.69 239.91 33.13 239.85 33.57C239.79 34.01 239.77 34.44 239.67 34.86C239.53 35.7115 239.312 36.5483 239.02 37.36C238.719 38.1602 238.337 38.9275 237.88 39.65C237.426 40.361 236.881 41.0098 236.26 41.58C235.666 42.1566 234.993 42.6449 234.26 43.03C233.502 43.4205 232.7 43.7161 231.87 43.91C231.001 44.0761 230.122 44.1929 229.24 44.26C228.798 44.3099 228.354 44.33 227.91 44.32C227.46 44.32 227.01 44.32 226.57 44.32C225.686 44.2644 224.807 44.1475 223.94 43.97C222.208 43.6236 220.577 42.8885 219.17 41.82C218.468 41.2832 217.845 40.6503 217.32 39.94C216.924 39.4236 216.588 38.8632 216.32 38.27C217.897 37.6379 219.309 36.6546 220.449 35.3949C221.59 34.1352 222.428 32.6321 222.9 31C221.987 32.5158 220.8 33.8485 219.4 34.93C218.031 35.9381 216.463 36.6437 214.8 37C213.135 37.3355 211.429 37.4164 209.74 37.24C208.881 37.1676 208.027 37.0507 207.18 36.89L205.91 36.64C205.49 36.54 205.07 36.41 204.65 36.3L203.38 36C202.97 35.87 202.57 35.72 202.16 35.58L200.94 35.15L199.78 34.62C199.002 34.281 198.255 33.8727 197.55 33.4C197.2 33.1727 196.866 32.9221 196.55 32.65L196.37 32.52L196.06 32.28C195.9 32.14 195.77 31.98 195.63 31.84C194.424 30.6111 193.568 29.0834 193.148 27.4139C192.728 25.7444 192.759 23.9931 193.24 22.34C192.356 23.9872 191.977 25.8585 192.15 27.72C192.304 29.365 192.895 30.9391 193.86 32.28C191.334 32.2069 188.807 32.2804 186.29 32.5C186.751 31.7542 187.143 30.9676 187.46 30.15C185.927 31.8812 184.179 33.4101 182.26 34.7C181.309 35.278 180.304 35.7636 179.26 36.15C178.229 36.5156 177.164 36.7737 176.08 36.92C173.858 37.189 171.607 37.108 169.41 36.68C168.41 36.5 167.49 36.27 166.53 36.01C167.183 34.6179 167.566 33.1148 167.66 31.58C166.766 33.3343 165.661 34.973 164.37 36.46C163.103 37.8565 161.629 39.0504 160 40C158.346 40.9696 156.593 41.7576 154.77 42.35C152.878 42.9698 150.952 43.4774 149 43.87C150.902 44.2716 152.861 44.319 154.78 44.01L154.22 44.16L158.9 60.78C158.95 61.03 159.12 61.88 159.36 63.16C158.62 62.3109 157.652 61.693 156.57 61.38C156.132 61.2854 155.678 61.2902 155.242 61.394C154.806 61.4978 154.398 61.6981 154.05 61.98L153.84 62.18C150.752 60.7429 147.862 58.9146 145.24 56.74C143.954 55.6463 142.757 54.4526 141.66 53.17L141.64 53.13ZM160.91 78.41L160.8 78.23C157.14 73.32 153.72 64.94 155.38 63.62C155.48 63.5338 155.6 63.4726 155.728 63.4413C155.857 63.4101 155.991 63.4096 156.12 63.44C157.03 63.63 158.19 64.88 159.12 66.23C159.187 66.8968 159.163 67.5695 159.05 68.23L158.78 68C158.43 67.7399 158.046 67.528 157.64 67.37C157.44 67.2853 157.225 67.2467 157.008 67.2571C156.792 67.2675 156.58 67.3266 156.39 67.43C156.582 67.3732 156.784 67.3607 156.982 67.3936C157.179 67.4266 157.367 67.504 157.53 67.62C157.863 67.8358 158.162 68.0985 158.42 68.4C158.945 69.0111 159.394 69.6825 159.76 70.4C159.664 70.9915 159.627 71.5912 159.65 72.19C159.674 72.9074 159.785 73.6192 159.98 74.31C160.172 74.9981 160.469 75.6525 160.86 76.25C161.233 76.8292 161.687 77.3513 162.21 77.8C162.46 79.1 162.72 80.41 162.98 81.69C162.167 80.6974 161.479 79.6094 160.93 78.45L160.91 78.41ZM167.91 95.06C167.72 94.27 167.09 91.22 166.29 87.22C166.54 84.89 167.4 84.01 167.95 83.68C167.497 82.1572 166.95 80.6643 166.31 79.21C165.59 78.21 164.85 77.13 164.09 76.09L163 70.34C163.558 66.8516 163.892 63.3311 164 59.8C173.529 53.9601 184.597 51.1269 195.76 51.67C201.2 52.22 208.38 53.81 214.28 58.48C214.28 61.25 214.28 68.81 214.55 72.91C214.34 74.02 214.12 75.15 213.9 76.29C213.18 77.29 212.48 78.29 211.8 79.29C211.34 80.36 211.55 84.64 211.91 86.67C211.07 90.97 210.4 94.31 210.19 95.14C209.6 97.53 195.13 110.77 189.07 110.77C183.01 110.77 168.53 97.49 167.93 95.1L167.91 95.06ZM133.81 127.43L163.24 118.35L163.42 117.83C164.23 115.47 166.07 110.19 167.16 107.18C167.991 109.587 169.612 111.642 171.76 113.01C172.31 113.38 172.95 113.79 173.66 114.24C178.3 117.24 187.97 123.42 187.97 127.24V133.15C177.335 132.969 166.804 131.019 156.81 127.38L155.16 126.72L155.86 133.19L151.56 132.4C151.56 132.4 152.84 141.21 153.96 146.17C143.2 141.65 135.74 135 133.83 127.47L133.81 127.43ZM177.3 152.04C171.526 150.043 165.927 147.571 160.56 144.65L160.97 148.72L159.65 148.3L157.65 129.99C163.551 132.029 169.632 133.509 175.81 134.41C185.81 135.88 200.2 136.27 212.57 130.12L213.29 149.78C212.51 149.98 211.71 150.17 210.9 150.35L209.04 134.55C209.04 134.55 195.57 137.5 190.69 137.8C194.99 138.604 199.329 139.181 203.69 139.53C198.85 140.969 193.861 141.848 188.82 142.15L189.22 150.73C194.255 151.394 199.333 151.674 204.41 151.57C195.425 152.898 186.306 153.056 177.28 152.04H177.3ZM215.44 149.21L214.6 126.61L213.08 127.45C205.9 131.39 197.84 132.92 190.08 133.13V127.25C190.08 123.42 199.75 117.25 204.39 114.25L206.29 113.02C208.448 111.647 210.074 109.581 210.9 107.16C211.99 110.16 213.84 115.47 214.66 117.84L214.83 118.36L244.24 127.44C241.9 136.89 230.85 144.91 215.46 149.25L215.44 149.21Z" fill="black"/>
<path d="M198.58 124.43C197.937 124.369 197.291 124.505 196.727 124.818C196.163 125.131 195.706 125.608 195.418 126.185C195.129 126.763 195.022 127.414 195.11 128.054C195.198 128.693 195.478 129.291 195.912 129.768C196.347 130.246 196.915 130.581 197.543 130.73C198.171 130.879 198.83 130.834 199.432 130.601C200.034 130.369 200.552 129.96 200.918 129.428C201.283 128.896 201.479 128.266 201.48 127.62C201.513 126.814 201.227 126.027 200.684 125.43C200.142 124.833 199.386 124.474 198.58 124.43ZM196.53 128.43C196.437 128.16 196.389 127.876 196.39 127.59C196.354 126.972 196.565 126.366 196.975 125.903C197.386 125.44 197.963 125.159 198.58 125.12C198.693 125.11 198.807 125.11 198.92 125.12C198.348 125.212 197.829 125.51 197.461 125.957C197.093 126.405 196.901 126.971 196.92 127.55C196.922 127.724 196.938 127.898 196.97 128.07L196.53 128.43ZM200.53 128.72C200.387 128.953 200.187 129.147 199.949 129.283C199.712 129.419 199.444 129.494 199.17 129.5C198.697 129.452 198.259 129.229 197.941 128.877C197.622 128.524 197.446 128.065 197.446 127.59C197.446 127.115 197.622 126.656 197.941 126.303C198.259 125.951 198.697 125.728 199.17 125.68C199.444 125.686 199.712 125.761 199.949 125.897C200.187 126.033 200.387 126.227 200.53 126.46C200.695 126.814 200.78 127.2 200.78 127.59C200.78 127.98 200.695 128.366 200.53 128.72Z" fill="black"/>
<path d="M107.82 154.88C108.2 153.45 99.3001 151.31 97.9601 148.48C96.2001 144.82 102.07 128.09 103.96 123.55C105.15 120.69 109.47 119.76 109.47 119.76C115.65 118.31 120.47 112.2 122.47 104.51C125.19 94.3401 125.08 81.2401 125.08 81.2401L103.4 75.4301C103.4 75.4301 96.7601 86.7301 94.0301 96.8901C91.9701 104.58 93.0301 112.27 97.6901 116.62C97.6901 116.62 101.15 119.62 100.75 122.71C100.13 127.6 95.5001 144.12 92.7501 147.2C90.9601 149.2 81.9601 146.46 81.5801 147.88L107.82 154.88ZM103.82 117.69H103.74H103.67L103.43 117.61C95.2601 115.15 92.8701 105.66 95.4301 96.1401C95.9101 94.3601 100.99 81.7901 103.82 76.9601L124.16 82.4801C124.22 87.0501 122.22 101.41 121.74 103.18C119.19 112.71 112.38 119.73 104.07 117.78L103.82 117.69Z" fill="black"/>
<path d="M97.3099 98C95.4799 105.72 97.5599 113.24 104.19 115.24C104.255 115.265 104.322 115.285 104.39 115.3H104.46H104.52H104.72C111.46 116.88 119.21 109.3 120.5 97.2C120.5 97.2 116.17 102.99 107.6 99.41C99.5999 96.12 97.3099 98 97.3099 98Z" fill="#F2A736"/>
<path d="M120.25 94.7901C119.64 98.5701 112.42 98.7901 112.42 98.7901C112.42 98.7901 115.61 97.0401 116.09 94.1401C116.123 93.8564 116.212 93.5823 116.354 93.3343C116.496 93.0864 116.686 92.8697 116.914 92.6976C117.142 92.5254 117.402 92.4012 117.679 92.3327C117.956 92.2641 118.245 92.2524 118.527 92.2985C118.808 92.3446 119.078 92.4474 119.319 92.6007C119.56 92.7539 119.767 92.9545 119.928 93.1903C120.089 93.426 120.201 93.692 120.256 93.9722C120.311 94.2523 120.309 94.5408 120.25 94.8201V94.7901Z" fill="#F2A736"/>
<path d="M119.44 88.39C121.19 89.01 120.66 92.45 120.66 92.45C120.502 91.9859 120.254 91.5578 119.93 91.1904C119.605 90.823 119.211 90.5238 118.77 90.31C118.642 90.2675 118.525 90.1997 118.424 90.1107C118.323 90.0216 118.241 89.9132 118.184 89.7918C118.126 89.6705 118.093 89.5387 118.087 89.4044C118.081 89.27 118.103 89.1359 118.15 89.01C118.193 88.8837 118.26 88.7671 118.348 88.6672C118.437 88.5673 118.544 88.4861 118.664 88.4283C118.785 88.3705 118.915 88.3374 119.048 88.3308C119.181 88.3242 119.315 88.3444 119.44 88.39Z" fill="#F2A736"/>
<path d="M114.15 89.73C115.46 88.59 118.04 90.61 118.04 90.61C117.586 90.5259 117.121 90.5321 116.669 90.6282C116.218 90.7243 115.79 90.9084 115.41 91.17C115.215 91.2581 114.996 91.2811 114.786 91.2355C114.577 91.1899 114.388 91.0782 114.246 90.9169C114.105 90.7555 114.02 90.5531 114.002 90.3394C113.985 90.1257 114.037 89.912 114.15 89.73Z" fill="#F2A736"/>
<path d="M304.26 147.86C303.88 146.44 294.88 149.17 293.1 147.18C290.34 144.1 285.71 127.58 285.1 122.69C284.71 119.62 288.17 116.6 288.17 116.6C292.79 112.25 293.88 104.6 291.82 96.87C289.1 86.71 282.46 75.41 282.46 75.41L260.77 81.22C260.77 81.22 260.67 94.32 263.39 104.49C265.45 112.18 270.23 118.29 276.39 119.74C276.39 119.74 280.7 120.67 281.9 123.53C283.8 128.07 289.66 144.8 287.9 148.46C286.55 151.29 277.65 153.46 278.04 154.86L304.26 147.86ZM281.8 117.74C273.49 119.74 266.68 112.67 264.13 103.14C263.66 101.37 261.66 87.01 261.71 82.44L282.05 76.92C284.89 81.75 289.97 94.32 290.44 96.1C292.99 105.62 290.61 115.1 282.44 117.57L282.21 117.65H282.13H282.06L281.8 117.74Z" fill="black"/>
<path d="M288.54 98C290.36 105.72 288.28 113.24 281.65 115.24C281.585 115.266 281.518 115.286 281.45 115.3H281.39H281.33H281.12C274.38 116.88 266.63 109.3 265.34 97.2C265.34 97.2 269.67 102.99 278.25 99.41C286.25 96.12 288.54 98 288.54 98Z" fill="#F2A736"/>
<path d="M265.59 94.79C266.21 98.57 273.43 98.79 273.43 98.79C273.43 98.79 270.23 97.04 269.76 94.14C269.715 93.8662 269.617 93.6039 269.471 93.368C269.325 93.1321 269.134 92.9273 268.909 92.7653C268.684 92.6033 268.429 92.4872 268.159 92.4236C267.889 92.3601 267.609 92.3504 267.335 92.395C267.061 92.4397 266.799 92.5378 266.563 92.6839C266.327 92.8299 266.122 93.021 265.96 93.2461C265.798 93.4713 265.682 93.7262 265.619 93.9963C265.555 94.2663 265.545 94.5462 265.59 94.82V94.79Z" fill="#F2A736"/>
<path d="M266.4 88.39C264.66 89.01 265.19 92.45 265.19 92.45C265.346 91.9849 265.593 91.5558 265.918 91.1881C266.242 90.8205 266.638 90.5219 267.08 90.31C267.335 90.2199 267.543 90.0322 267.659 89.7884C267.775 89.5446 267.79 89.2646 267.7 89.01C267.61 88.7554 267.422 88.5471 267.178 88.4308C266.935 88.3145 266.655 88.2999 266.4 88.39Z" fill="#F2A736"/>
<path d="M271.7 89.73C270.39 88.59 267.81 90.61 267.81 90.61C268.264 90.5259 268.73 90.5321 269.181 90.6282C269.632 90.7243 270.06 90.9084 270.44 91.17C270.635 91.3269 270.883 91.4046 271.133 91.388C271.383 91.3713 271.617 91.2614 271.79 91.08C271.947 90.8846 272.025 90.6375 272.008 90.3875C271.991 90.1375 271.881 89.9028 271.7 89.73Z" fill="#F2A736"/>
<path d="M68.1201 99.12C65.6401 99.12 63.2433 100.015 61.3701 101.64C61.2698 101.729 61.1922 101.841 61.1435 101.966C61.0949 102.091 61.0765 102.226 61.0901 102.36C60.6192 102.989 60.3664 103.754 60.3701 104.54C60.3349 104.988 60.3928 105.439 60.5401 105.864C60.6875 106.288 60.9212 106.678 61.2264 107.008C61.5316 107.338 61.9018 107.602 62.3138 107.782C62.7257 107.962 63.1704 108.055 63.6201 108.055C64.0697 108.055 64.5144 107.962 64.9264 107.782C65.3383 107.602 65.7085 107.338 66.0137 107.008C66.319 106.678 66.5526 106.288 66.7 105.864C66.8473 105.439 66.9052 104.988 66.8701 104.54C66.8778 103.891 66.7076 103.253 66.3779 102.694C66.0482 102.135 65.5717 101.677 65.0001 101.37C65.9925 100.989 67.047 100.796 68.1101 100.8C73.1101 100.8 77.3301 105.23 77.4801 110.66C77.5222 112.239 77.222 113.808 76.6001 115.26C75.6001 115.8 70.6001 118.03 64.0401 112.92C63.8899 112.808 63.7022 112.758 63.516 112.78C63.3299 112.802 63.1594 112.895 63.0401 113.04C63.0401 113.04 58.4301 118.35 43.6001 121.15C25.6701 121.15 9.24006 132.59 1.60006 149.95V142C1.60006 137.58 4.92006 134 9.01006 134C9.23284 134 9.4465 133.911 9.60403 133.754C9.76156 133.596 9.85006 133.383 9.85006 133.16C9.85006 132.937 9.76156 132.724 9.60403 132.566C9.4465 132.408 9.23284 132.32 9.01006 132.32C4.07006 132.32 0.0100567 136.67 0.0100567 142.02V154.02C0.00500285 154.211 0.0658973 154.398 0.182477 154.549C0.299057 154.7 0.464194 154.806 0.650057 154.85H0.780057C0.941151 154.845 1.09687 154.791 1.22579 154.694C1.35472 154.598 1.45053 154.463 1.50006 154.31C8.12006 135.46 25.0601 122.79 43.6501 122.79H68.3901C69.999 122.753 71.5772 122.342 73.0001 121.59C75.1968 120.57 76.921 118.749 77.8201 116.5C78.6818 114.657 79.0866 112.633 79.0001 110.6C78.8601 104.28 74.0001 99.13 68.1201 99.12ZM74.84 118.05C74.2273 118.736 73.5202 119.332 72.7401 119.82C71.3221 120.566 69.7672 121.015 68.1701 121.14H50.7801C58.7801 118.78 62.4301 115.86 63.6701 114.68C68.6701 118.34 72.8 118.19 75.2401 117.56C75.1101 117.73 75.0001 117.89 74.84 118.05Z" fill="black"/>
<path d="M307.05 110.6C306.984 112.64 307.416 114.665 308.31 116.5C309.209 118.749 310.933 120.57 313.13 121.59C314.539 122.344 316.103 122.762 317.7 122.81H342.43C361.03 122.81 377.97 135.48 384.59 154.33C384.638 154.484 384.734 154.619 384.863 154.716C384.992 154.813 385.149 154.867 385.31 154.87H385.45C385.636 154.826 385.801 154.72 385.918 154.569C386.034 154.418 386.095 154.231 386.09 154.04V142C386.09 136.65 382.09 132.3 377.09 132.3C376.867 132.3 376.654 132.388 376.496 132.546C376.339 132.704 376.25 132.917 376.25 133.14C376.25 133.363 376.339 133.576 376.496 133.734C376.654 133.891 376.867 133.98 377.09 133.98C381.17 133.98 384.5 137.58 384.5 141.98V150C376.83 132.64 360.4 121.23 342.5 121.2C327.67 118.4 323.1 113.14 323.05 113.09C322.931 112.945 322.76 112.852 322.574 112.83C322.388 112.808 322.2 112.858 322.05 112.97C315.5 118.08 310.49 115.85 309.5 115.31C308.869 113.861 308.568 112.29 308.62 110.71C308.77 105.28 312.97 100.86 317.99 100.85C319.053 100.847 320.107 101.04 321.1 101.42C320.529 101.727 320.053 102.185 319.725 102.744C319.397 103.303 319.229 103.942 319.24 104.59C319.205 105.038 319.263 105.489 319.41 105.914C319.558 106.338 319.791 106.728 320.096 107.058C320.402 107.388 320.772 107.652 321.184 107.832C321.596 108.012 322.04 108.105 322.49 108.105C322.94 108.105 323.384 108.012 323.796 107.832C324.208 107.652 324.579 107.388 324.884 107.058C325.189 106.728 325.423 106.338 325.57 105.914C325.717 105.489 325.775 105.038 325.74 104.59C325.739 103.805 325.486 103.041 325.02 102.41C325.034 102.276 325.015 102.141 324.967 102.016C324.918 101.891 324.84 101.779 324.74 101.69C322.876 100.05 320.483 99.138 318 99.12C312.12 99.13 307.22 104.28 307.05 110.6ZM310.84 117.6C313.29 118.23 317.44 118.38 322.41 114.72C323.65 115.9 327.34 118.82 335.3 121.18H317.91C316.316 121.053 314.765 120.604 313.35 119.86C312.57 119.372 311.863 118.776 311.25 118.09C311.104 117.921 310.967 117.744 310.84 117.56V117.6Z" fill="black"/>
<path d="M339.3 237.89H377.82C378.947 237.89 380.049 238.224 380.987 238.851C381.924 239.477 382.655 240.367 383.086 241.409C383.518 242.45 383.63 243.596 383.411 244.702C383.191 245.808 382.648 246.823 381.851 247.621C381.053 248.418 380.038 248.961 378.932 249.18C377.826 249.4 376.68 249.288 375.639 248.856C374.597 248.425 373.707 247.694 373.081 246.757C372.454 245.819 372.12 244.717 372.12 243.59H369.55C369.55 245.226 370.035 246.825 370.944 248.185C371.853 249.545 373.144 250.605 374.655 251.23C376.166 251.856 377.829 252.02 379.433 251.701C381.038 251.382 382.511 250.594 383.668 249.438C384.824 248.281 385.612 246.808 385.931 245.203C386.25 243.599 386.086 241.936 385.461 240.425C384.835 238.914 383.775 237.622 382.415 236.714C381.055 235.805 379.456 235.32 377.82 235.32H339.31" fill="black"/>
<path d="M46.78 237.89H8.26999C7.14264 237.89 6.0406 238.224 5.10324 238.851C4.16588 239.477 3.4353 240.367 3.00388 241.409C2.57246 242.45 2.45958 243.596 2.67952 244.702C2.89945 245.808 3.44233 246.823 4.23949 247.621C5.03664 248.418 6.05229 248.961 7.15798 249.18C8.26367 249.4 9.40975 249.288 10.4513 248.856C11.4928 248.425 12.383 247.694 13.0094 246.757C13.6357 245.819 13.97 244.717 13.97 243.59H16.53C16.53 245.226 16.0447 246.825 15.1356 248.186C14.2264 249.546 12.9342 250.606 11.4225 251.231C9.91074 251.857 8.24741 252.02 6.64292 251.7C5.03842 251.38 3.56487 250.592 2.40868 249.434C1.2525 248.277 0.465652 246.802 0.147682 245.197C-0.170287 243.592 -0.00508636 241.929 0.622384 240.418C1.24985 238.907 2.3114 237.616 3.67271 236.709C5.03402 235.801 6.63392 235.318 8.26999 235.32H46.78" fill="black"/>
<path d="M61.1101 243.12L64.2501 230.71H66.8401L70.0001 243.12H68.0001L67.2701 240.05H63.8701L63.1501 243.12H61.1101ZM64.2001 238.42H66.8701L66.0901 235C65.9501 234.42 65.8401 233.89 65.7401 233.42C65.6401 232.95 65.5801 232.64 65.5501 232.42C65.5501 232.6 65.4501 232.92 65.3601 233.42C65.2701 233.92 65.1501 234.42 65.0201 234.99L64.2001 238.42Z" fill="black"/>
<path d="M72.45 243.12V230.71H74.45V241.29H79.78V243.12H72.45Z" fill="black"/>
<path d="M82.6499 243.12V230.71H84.6499V241.29H89.9999V243.12H82.6499Z" fill="black"/>
<path d="M93.4299 238.42V236.62H98.8699V238.42H93.4299Z" fill="black"/>
<path d="M102.84 243.12V241.37H105.34V232.47H102.84V230.71H109.84V232.47H107.34V241.37H109.84V243.12H102.84Z" fill="black"/>
<path d="M112.75 243.12V230.71H115.2L118.74 240.88C118.74 240.54 118.68 240.14 118.64 239.67C118.6 239.2 118.57 238.67 118.55 238.2C118.53 237.73 118.55 237.25 118.55 236.85V230.71H120.37V243.12H117.92L114.37 233C114.37 233.31 114.43 233.68 114.46 234.14C114.49 234.6 114.52 235.06 114.54 235.54C114.56 236.02 114.54 236.47 114.54 236.88V243.16L112.75 243.12Z" fill="black"/>
<path d="M124 238.42V236.62H129.45V238.42H124Z" fill="black"/>
<path d="M136.94 243.29C136.248 243.306 135.562 243.155 134.94 242.85C134.384 242.576 133.926 242.135 133.63 241.59C133.312 240.997 133.153 240.332 133.17 239.66V234.18C133.151 233.507 133.31 232.842 133.63 232.25C133.926 231.705 134.384 231.264 134.94 230.99C135.577 230.694 136.272 230.54 136.975 230.54C137.678 230.54 138.372 230.694 139.01 230.99C139.566 231.264 140.024 231.705 140.32 232.25C140.64 232.842 140.799 233.507 140.78 234.18V239.66C140.796 240.332 140.638 240.997 140.32 241.59C140.024 242.135 139.566 242.576 139.01 242.85C138.368 243.168 137.656 243.319 136.94 243.29ZM136.94 241.54C137.19 241.559 137.441 241.525 137.677 241.441C137.913 241.356 138.129 241.223 138.31 241.05C138.637 240.663 138.805 240.166 138.78 239.66V234.18C138.814 233.67 138.645 233.166 138.31 232.78C138.126 232.611 137.91 232.481 137.675 232.398C137.439 232.316 137.189 232.282 136.94 232.3C136.692 232.282 136.444 232.315 136.21 232.398C135.976 232.48 135.761 232.611 135.58 232.78C135.412 232.97 135.284 233.192 135.203 233.432C135.123 233.673 135.091 233.927 135.11 234.18V239.66C135.085 240.166 135.253 240.663 135.58 241.05C135.76 241.221 135.975 241.353 136.209 241.438C136.443 241.522 136.692 241.557 136.94 241.54Z" fill="black"/>
<path d="M143.35 243.12V230.71H145.8L149.34 240.88C149.34 240.54 149.28 240.14 149.24 239.67C149.2 239.2 149.17 238.67 149.15 238.2C149.13 237.73 149.15 237.25 149.15 236.85V230.71H150.96V243.12H148.52L145 233C145 233.31 145.06 233.68 145.09 234.14C145.12 234.6 145.15 235.06 145.17 235.54C145.19 236.02 145.17 236.47 145.17 236.88V243.16L143.35 243.12Z" fill="black"/>
<path d="M153.79 243.12V230.71H161.15V232.45H155.75V235.83H160.56V237.57H155.75V241.39H161.15V243.12H153.79Z" fill="black"/>
<path d="M173.68 243.12V230.71H176.08L177.3 234.71C177.43 235.09 177.53 235.45 177.61 235.79C177.69 236.13 177.74 236.37 177.78 236.53C177.78 236.37 177.87 236.12 177.95 235.79C178.03 235.46 178.12 235.09 178.24 234.71L179.41 230.71H181.81V243.12H179.94V239.12C179.94 238.57 179.94 237.96 179.99 237.3C180.04 236.64 180.06 235.98 180.12 235.3C180.18 234.62 180.22 234 180.29 233.39C180.36 232.78 180.4 232.26 180.45 231.82L178.7 237.75H176.83L175 231.82C175.06 232.25 175.11 232.76 175.17 233.34C175.23 233.92 175.28 234.55 175.33 235.21C175.38 235.87 175.43 236.54 175.46 237.21C175.49 237.88 175.51 238.51 175.51 239.11V243.11L173.68 243.12Z" fill="black"/>
<path d="M183.51 243.12L186.65 230.71H189.24L192.38 243.12H190.38L189.64 240.05H186.24L185.53 243.12H183.51ZM186.6 238.42H189.27L188.49 234.96C188.35 234.38 188.24 233.85 188.14 233.38C188.04 232.91 187.98 232.6 187.94 232.38C187.94 232.56 187.88 232.893 187.76 233.38C187.67 233.84 187.55 234.38 187.42 234.95L186.6 238.42Z" fill="black"/>
<path d="M194.4 243.12V230.71H198.31C199.036 230.695 199.756 230.852 200.41 231.17C200.987 231.449 201.47 231.89 201.8 232.44C202.138 233.026 202.308 233.694 202.29 234.37C202.307 235.141 202.087 235.898 201.66 236.54C201.253 237.15 200.655 237.608 199.96 237.84L202.46 243.12H200.23L198.01 238.12H196.38V243.12H194.4ZM196.4 236.36H198.33C198.592 236.372 198.855 236.332 199.102 236.243C199.349 236.154 199.576 236.017 199.77 235.84C199.954 235.654 200.098 235.432 200.191 235.187C200.284 234.943 200.324 234.681 200.31 234.42C200.323 234.157 200.281 233.895 200.188 233.649C200.095 233.403 199.953 233.179 199.77 232.99C199.576 232.813 199.349 232.676 199.102 232.587C198.855 232.498 198.592 232.458 198.33 232.47H196.4V236.36Z" fill="black"/>
<path d="M204.6 243.12V230.71H206.6V235.82H208.15L210.6 230.71H212.74L209.9 236.71L212.9 243.16H210.68L208.14 237.64H206.61V243.16L204.6 243.12Z" fill="black"/>
<path d="M215 243.12V230.71H222.36V232.45H217V235.83H221.81V237.57H217V241.39H222.4V243.12H215Z" fill="black"/>
<path d="M227.76 243.12V232.53H224.46V230.7H233V232.53H229.7V243.12H227.76Z" fill="black"/>
<path d="M235.44 243.12V241.37H237.94V232.47H235.44V230.71H242.44V232.47H240V241.37H242.49V243.12H235.44Z" fill="black"/>
<path d="M245.35 243.12V230.71H247.8L251.34 240.88C251.34 240.54 251.28 240.14 251.24 239.67C251.2 239.2 251.17 238.67 251.15 238.2C251.13 237.73 251.15 237.25 251.15 236.85V230.71H252.96V243.12H250.52L247 233C247 233.31 247.06 233.68 247.09 234.14C247.12 234.6 247.14 235.06 247.17 235.54C247.2 236.02 247.17 236.47 247.17 236.88V243.16L245.35 243.12Z" fill="black"/>
<path d="M259.41 243.29C258.701 243.309 257.999 243.158 257.36 242.85C256.795 242.574 256.325 242.135 256.01 241.59C255.681 241.001 255.515 240.335 255.53 239.66V234.18C255.512 233.505 255.678 232.838 256.01 232.25C256.325 231.705 256.795 231.266 257.36 230.99C257.998 230.679 258.701 230.524 259.41 230.54C260.104 230.532 260.789 230.69 261.41 231C261.963 231.282 262.424 231.716 262.74 232.25C263.072 232.838 263.238 233.505 263.22 234.18H261.22C261.237 233.925 261.201 233.669 261.115 233.428C261.029 233.187 260.895 232.967 260.72 232.78C260.532 232.611 260.312 232.482 260.074 232.399C259.835 232.317 259.582 232.283 259.33 232.3C259.077 232.284 258.822 232.318 258.582 232.4C258.342 232.483 258.12 232.612 257.93 232.78C257.753 232.965 257.618 233.186 257.532 233.427C257.445 233.668 257.411 233.925 257.43 234.18V239.66C257.413 239.915 257.448 240.171 257.534 240.412C257.62 240.653 257.755 240.874 257.93 241.06C258.118 241.233 258.339 241.367 258.579 241.453C258.82 241.539 259.075 241.575 259.33 241.56C259.584 241.576 259.838 241.54 260.077 241.454C260.316 241.368 260.535 241.234 260.72 241.06C260.894 240.869 261.028 240.645 261.114 240.401C261.2 240.157 261.236 239.898 261.22 239.64V238.33H258.99V236.6H263.19V239.66C263.205 240.331 263.039 240.995 262.71 241.58C262.395 242.12 261.934 242.56 261.38 242.85C260.765 243.144 260.092 243.295 259.41 243.29Z" fill="black"/>
<path d="M279.78 243.29C279.032 243.309 278.288 243.165 277.6 242.87C277.017 242.617 276.522 242.196 276.18 241.66C275.84 241.111 275.666 240.476 275.68 239.83H277.68C277.67 240.071 277.717 240.311 277.818 240.53C277.919 240.749 278.07 240.941 278.26 241.09C278.721 241.414 279.278 241.572 279.84 241.54C280.371 241.57 280.895 241.41 281.32 241.09C281.5 240.937 281.643 240.745 281.737 240.528C281.83 240.312 281.873 240.076 281.86 239.84C281.871 239.429 281.741 239.026 281.49 238.7C281.22 238.363 280.842 238.13 280.42 238.04L278.92 237.62C278.07 237.416 277.309 236.942 276.75 236.27C276.249 235.621 275.984 234.82 276 234C275.985 233.362 276.148 232.731 276.47 232.18C276.787 231.663 277.245 231.247 277.79 230.98C278.415 230.684 279.099 230.537 279.79 230.55C280.805 230.498 281.803 230.826 282.59 231.47C282.933 231.784 283.206 232.168 283.388 232.595C283.571 233.023 283.66 233.485 283.65 233.95H281.65C281.66 233.724 281.62 233.499 281.534 233.29C281.448 233.081 281.317 232.893 281.15 232.74C280.758 232.424 280.262 232.267 279.76 232.3C279.274 232.271 278.794 232.42 278.41 232.72C278.246 232.86 278.117 233.035 278.032 233.233C277.947 233.43 277.909 233.645 277.92 233.86C277.906 234.278 278.036 234.688 278.29 235.02C278.545 235.344 278.894 235.582 279.29 235.7L280.84 236.14C281.689 236.335 282.451 236.802 283.01 237.47C283.521 238.137 283.786 238.96 283.76 239.8C283.78 240.442 283.61 241.075 283.272 241.621C282.934 242.167 282.443 242.601 281.86 242.87C281.208 243.167 280.496 243.31 279.78 243.29Z" fill="black"/>
<path d="M289.94 243.29C289.432 243.32 288.922 243.248 288.443 243.076C287.963 242.904 287.523 242.637 287.15 242.29C286.807 241.934 286.542 241.512 286.37 241.049C286.197 240.586 286.123 240.093 286.15 239.6V230.69H288.15V239.59C288.122 240.107 288.286 240.616 288.61 241.02C288.979 241.36 289.463 241.549 289.965 241.549C290.467 241.549 290.951 241.36 291.32 241.02C291.652 240.62 291.82 240.109 291.79 239.59V230.69H293.79V239.6C293.813 240.093 293.737 240.585 293.565 241.047C293.393 241.509 293.129 241.932 292.79 242.29C292.409 242.643 291.959 242.913 291.469 243.085C290.978 243.257 290.458 243.327 289.94 243.29Z" fill="black"/>
<path d="M296.64 243.12V241.37H299.14V232.47H296.64V230.71H303.64V232.47H301.14V241.37H303.64V243.12H296.64Z" fill="black"/>
<path d="M309.36 243.12V232.53H306.06V230.7H314.63V232.53H311.33V243.12H309.36Z" fill="black"/>
<path d="M317 243.12V230.71H324.36V232.45H318.95V235.83H323.77V237.57H318.95V241.39H324.36V243.12H317Z" fill="black"/>
</svg>
