<?xml version="1.0" encoding="utf-8"?>
<!-- Generator: Adobe Illustrator 26.3.1, SVG Export Plug-In . SVG Version: 6.00 Build 0)  -->
<svg version="1.1" id="Layer_1" xmlns="http://www.w3.org/2000/svg" xmlns:xlink="http://www.w3.org/1999/xlink" x="0px" y="0px"
	 viewBox="0 0 151.6 120" style="enable-background:new 0 0 151.6 120;" xml:space="preserve">
<style type="text/css">
	.st0{fill:#141516;}
	.st1{opacity:0.4;}
	.st2{clip-path:url(#SVGID_00000178178717732306107710000013069811778378193838_);}
	.st3{opacity:2.000000e-02;enable-background:new    ;}
	.st4{fill-rule:evenodd;clip-rule:evenodd;fill:#FFFFFF;}
	.st5{opacity:6.000000e-02;enable-background:new    ;}
	.st6{opacity:0.1;enable-background:new    ;}
	.st7{opacity:0.12;}
	.st8{opacity:0.1;}
	.st9{fill:#FFFFFF;}
</style>
<g>
	<g id="Layer_1_00000065781259655540062940000009250002486829130409_">
		<g>
			<rect class="st0" width="151.6" height="120"/>
		</g>
	</g>
	<g id="Layer_2_00000023278632056818909590000001716347978163670683_">
		<g class="st1">
			<g>
				<defs>
					<rect id="SVGID_1_" width="151.6" height="120"/>
				</defs>
				<clipPath id="SVGID_00000151533149343450889710000005691699444642364056_">
					<use xlink:href="#SVGID_1_"  style="overflow:visible;"/>
				</clipPath>
				<g style="clip-path:url(#SVGID_00000151533149343450889710000005691699444642364056_);">
					<g>
						<g class="st3">
							<path class="st4" d="M-8.6-17.3c21.1-4.2,83.4,16.5,47.5,43.8C20,40.9,28.6,61.3,7.1,63.3c-21.4,2-40.8-7.5-45.5-30.8
								C-43,9.2-29.7-13.1-8.6-17.3z"/>
						</g>
						<g class="st5">
							<path class="st4" d="M-10.3-13.3c17.9-3.6,70.8,14,40.3,37.2c-16,12.2-8.7,29.6-27,31.3c-18.2,1.7-34.7-6.4-38.6-26.2
								C-39.5,9.2-28.2-9.7-10.3-13.3z"/>
						</g>
						<g class="st6">
							<path class="st4" d="M-11.1-9.7c15-3,59.3,11.7,33.8,31.2C9.2,31.7,15.4,46.2,0.1,47.7c-15.2,1.4-29.1-5.4-32.3-21.9
								C-35.6,9.2-26.1-6.7-11.1-9.7z"/>
						</g>
						<g class="st7">
							<g>
								<path class="st4" d="M-14.2-8.7C-27.4-6.1-35.8,7.9-32.9,22.5S-17.8,43-4.4,41.8c13.5-1.2,8.1-14,19.9-23
									C37.9,1.6-1-11.3-14.2-8.7z"/>
							</g>
						</g>
					</g>
					<g>
						<g class="st3">
							<path class="st4" d="M141.2,91.5c19.8-8.3,85-0.4,55.2,33.5c-15.7,17.9-3.2,36.2-23.9,42.4c-20.6,6.2-41.5,0.7-50.7-21.2
								S121.3,99.8,141.2,91.5L141.2,91.5z"/>
						</g>
						<g class="st5">
							<path class="st4" d="M140.3,95.8c16.8-7,72.2-0.3,46.9,28.5c-13.3,15.2-2.7,30.7-20.3,36c-17.5,5.2-35.3,0.6-43-18
								S123.5,102.9,140.3,95.8L140.3,95.8z"/>
						</g>
						<g class="st6">
							<path class="st4" d="M140.2,99.5c14.1-5.9,60.4-0.3,39.3,23.8c-11.1,12.7-2.2,25.7-17,30.1c-14.6,4.4-29.5,0.5-36-15.1
								S126.1,105.4,140.2,99.5L140.2,99.5z"/>
						</g>
						<g class="st7">
							<g>
								<path class="st4" d="M137.3,101.1c-12.4,5.2-17.8,20.5-12.1,34.2c5.7,13.7,18.8,17.1,31.7,13.3c13-3.9,5.1-15.3,14.9-26.5
									C190.5,100.9,149.7,95.9,137.3,101.1L137.3,101.1z"/>
							</g>
						</g>
					</g>
					<g class="st8">
						<g>
							<path class="st9" d="M170.6,40.6c-11.3,0-25-2.3-39-6.6c-15-4.6-28.5-10.9-38-17.7c-4.6-3.3-8-6.6-10.2-9.8
								c-2.2-3.3-2.9-6.2-2.1-8.8c0.8-2.6,3-4.6,6.7-6.1c3.5-1.4,8.2-2.2,13.9-2.4c11.7-0.4,26.4,2,41.4,6.6
								c15,4.6,28.5,10.9,38,17.7c4.6,3.3,8,6.6,10.2,9.8c2.2,3.3,2.9,6.2,2.1,8.8c-0.8,2.6-3,4.6-6.7,6.1
								c-3.5,1.4-8.2,2.2-13.9,2.4C172.2,40.6,171.4,40.6,170.6,40.6z M81.3-2.3L81.3-2.3c-0.7,2.6,0,5.5,2.2,8.8
								c2.1,3.1,5.5,6.4,10.2,9.7c9.5,6.8,23,13.1,37.9,17.7s29.7,6.9,41.4,6.6c5.7-0.2,10.3-1,13.9-2.4c3.6-1.4,5.9-3.5,6.7-6
								c0.8-2.6,0.1-5.5-2.1-8.7c-2.1-3.1-5.5-6.4-10.2-9.7c-9.5-6.8-23-13.1-37.9-17.7c-15-4.6-29.7-6.9-41.4-6.6
								c-5.7,0.2-10.3,1-13.9,2.4C84.4-6.9,82.1-4.9,81.3-2.3L81.3-2.3z"/>
						</g>
						<g>
							<path class="st9" d="M171.5,33.6c-1.1,0-2.2,0-3.4-0.1c-9.6-0.5-21.8-2.9-34.3-6.7c-12.6-3.9-24-8.7-32.2-13.7
								c-8.2-5-12.2-9.5-11.2-12.7l0,0l0,0c1-3.2,6.8-4.7,16.4-4.2c9.6,0.5,21.8,2.9,34.3,6.7c12.6,3.9,24,8.7,32.2,13.7
								c8.2,5,12.2,9.5,11.2,12.7C183.6,32.1,179,33.6,171.5,33.6z M103.3-3.8c-3.1,0-5.8,0.3-7.9,0.8c-2.9,0.7-4.6,1.9-5.1,3.5
								c-2,6.5,17.5,18.3,43.4,26.2c12.6,3.9,24.8,6.2,34.3,6.7c4.7,0.2,8.4,0,11.2-0.7c2.9-0.7,4.6-1.9,5.1-3.5
								C186.4,22.8,167,11,141,3c-12.6-3.9-24.8-6.2-34.3-6.7C105.5-3.7,104.4-3.8,103.3-3.8z"/>
						</g>
						<g>
							<path class="st9" d="M161.7,28.3c-0.8,0-1.6,0-2.4-0.1c-6.8-0.3-15.6-2-24.5-4.8s-17.2-6.2-23-9.8c-5.9-3.6-8.7-6.8-8-9.1
								c0.7-2.3,4.9-3.4,11.7-3c6.8,0.3,15.6,2,24.5,4.8c9,2.8,17.2,6.2,23,9.8c5.9,3.6,8.7,6.8,8,9.1
								C170.4,27.2,167.2,28.3,161.7,28.3z M103.8,4.6L103.8,4.6c-1.4,4.7,12.5,13.1,31,18.8c9,2.8,17.7,4.5,24.5,4.8
								c0.8,0,1.7,0.1,2.4,0.1c5.4,0,8.6-1,9.2-3c0.7-2.2-2.1-5.4-8-9c-5.9-3.5-14-7-23-9.8C121.5,0.7,105.2-0.1,103.8,4.6
								L103.8,4.6z"/>
						</g>
						<g>
							<path class="st9" d="M149.9,21.8c-0.4,0-0.8,0-1.2,0c-3.5-0.2-8-1.1-12.6-2.5c-4.6-1.4-8.8-3.2-11.8-5
								c-3-1.8-4.5-3.5-4.1-4.7c0.4-1.2,2.5-1.7,6-1.6c3.5,0.2,8,1.1,12.6,2.5c4.6,1.4,8.8,3.2,11.8,5c3,1.8,4.5,3.5,4.1,4.7
								C154.4,21.2,152.7,21.8,149.9,21.8z M120.1,9.6L120.1,9.6c-0.7,2.4,6.5,6.7,16,9.6c9.5,2.9,17.8,3.3,18.6,1
								c0.4-1.1-1.1-2.8-4.1-4.6c-3-1.8-7.2-3.6-11.8-5C129.2,7.6,120.9,7.2,120.1,9.6L120.1,9.6z"/>
						</g>
					</g>
				</g>
			</g>
		</g>
	</g>
</g>
</svg>
